{
"skeleton": {
	"hash": "f6oyrvUWtZ4kmuwou2BAa4wjq90",
	"spine": "3.8.84",
	"x": -120.24,
	"y": -3.92,
	"width": 260.82,
	"height": 466.05,
	"images": "./images/",
	"audio": "D:/0_TQD/13.Foodland/anim/char"
},
"bones": [
	{ "name": "root" },
	{ "name": "bone", "parent": "root", "x": 12.98, "y": -65.03 },
	{ "name": "bone2", "parent": "bone", "x": -1.67, "y": 154.66 },
	{ "name": "bone3", "parent": "bone2", "length": 308.97 },
	{ "name": "bone4", "parent": "bone3", "length": 47.79, "rotation": 82.3, "color": "00ff58ff" },
	{ "name": "bone5", "parent": "bone4", "length": 62.37, "rotation": 4.87, "x": 47.79, "color": "00ff58ff" },
	{ "name": "bone6", "parent": "bone5", "length": 63.72, "rotation": 0.78, "x": 62.37, "color": "00ff58ff" },
	{ "name": "bone7", "parent": "bone6", "length": 81.32, "rotation": 2.72, "x": 63.71, "color": "00ff58ff" },
	{ "name": "root_face", "parent": "bone", "x": -31.06, "y": 290.24 },
	{ "name": "foot", "parent": "bone", "x": 53.4, "y": 20.42, "color": "ff0000ff" },
	{ "name": "foot3", "parent": "foot", "x": 0.53, "y": 46.27, "color": "ff0000ff" },
	{
		"name": "foot4",
		"parent": "foot3",
		"length": 30,
		"rotation": 180,
		"x": 43.5,
		"y": -2.92,
		"color": "ff0000ff"
	},
	{ "name": "foot2", "parent": "foot4", "length": 26.75, "rotation": -180, "x": 79.99, "color": "ff0000ff" },
	{ "name": "foot5", "parent": "bone", "x": -84.17, "y": 20.42, "color": "00ff0aff" },
	{ "name": "foot6", "parent": "foot5", "x": 0.53, "y": 46.27, "color": "00ff0aff" },
	{
		"name": "foot7",
		"parent": "foot6",
		"length": 30,
		"rotation": 180,
		"x": 43.5,
		"y": -2.92,
		"color": "00ff0aff"
	},
	{ "name": "foot8", "parent": "foot7", "length": 26.75, "rotation": 180, "x": 79.99, "color": "00ff0aff" },
	{
		"name": "bone8",
		"parent": "bone4",
		"length": 100,
		"rotation": 127.7,
		"x": 29.12,
		"y": 4.66,
		"color": "00ff58ff"
	},
	{ "name": "root_face2", "parent": "root_face", "x": -1.45, "y": 31.29, "color": "32ff00ff" },
	{ "name": "root_face3", "parent": "root_face", "x": -1.45, "y": 24.27, "color": "ff0000ff" },
	{ "name": "eye_1_L", "parent": "root_face2", "x": 48.74, "y": -21.22, "color": "32ff00ff" },
	{ "name": "eye_1_R", "parent": "root_face2", "x": -62.2, "y": -24.08, "color": "32ff00ff" },
	{ "name": "eye_2_L", "parent": "root_face3", "x": 54.11, "y": 0.21, "color": "ff0000ff" },
	{ "name": "eye_2_R", "parent": "root_face3", "x": -60.47, "y": -0.81, "color": "ff0000ff" },
	{ "name": "root_eyebrow", "parent": "root_face", "x": -2.3, "y": 71.5, "color": "ff0093ff" },
	{ "name": "eyebrow_L", "parent": "root_eyebrow", "x": 50.91, "y": -7.72, "color": "ff0093ff" },
	{ "name": "eyebrow_R", "parent": "root_eyebrow", "x": -64.69, "y": -6.16, "color": "ff0093ff" },
	{ "name": "mouth", "parent": "root_face", "x": -3.29, "y": -38.21, "color": "0000ffff" },
	{ "name": "bone10", "parent": "bone5", "rotation": -87.17, "x": 69.51, "y": -19.38, "color": "00ff58ff" },
	{ "name": "bone9", "parent": "bone10", "x": -0.44, "y": 11.14, "color": "00ff58ff" },
	{ "name": "bone11", "parent": "bone7", "rotation": -90.68, "x": 107.35, "y": 3.31, "color": "00ff58ff" },
	{
		"name": "hair_5",
		"parent": "bone11",
		"length": 50,
		"rotation": -30.78,
		"x": 14.33,
		"y": 1.33,
		"color": "00ff58ff"
	},
	{
		"name": "hair_2",
		"parent": "bone11",
		"length": 50,
		"rotation": -150.93,
		"x": -14,
		"y": -0.53,
		"color": "00ff58ff"
	},
	{
		"name": "hair_1",
		"parent": "bone11",
		"length": 50,
		"rotation": -103.1,
		"x": -0.94,
		"y": -3.68,
		"color": "00ff58ff"
	},
	{
		"name": "hair_3",
		"parent": "bone11",
		"length": 50,
		"rotation": 96.23,
		"x": 0.33,
		"y": 3.35,
		"color": "00ff58ff"
	},
	{ "name": "hair_4", "parent": "hair_3", "rotation": -100.69, "x": 66.67, "y": 9.57, "color": "00ff58ff" }
],
"slots": [
	{ "name": "eye_1_s_R", "bone": "eye_1_R", "attachment": "eye_1_s_R" },
	{ "name": "eye_1_s_L", "bone": "eye_1_L", "attachment": "eye_1_s_L" },
	{ "name": "eyebrow_s_L", "bone": "eyebrow_L", "attachment": "eyebrow_s_L" },
	{ "name": "eyebrow_s_R", "bone": "eyebrow_R", "attachment": "eyebrow_s_R" },
	{ "name": "foot_s", "bone": "foot2", "attachment": "foot_s" },
	{ "name": "foot_s2", "bone": "foot8", "attachment": "foot_s" },
	{ "name": "body_s", "bone": "bone3", "attachment": "body_s" },
	{ "name": "hair_2_s", "bone": "hair_2", "attachment": "hair_2_s" },
	{ "name": "body_2", "bone": "bone8", "attachment": "body_2" },
	{ "name": "hair_3_s", "bone": "hair_3", "attachment": "hair_3_s" },
	{ "name": "hair_4_s", "bone": "hair_4", "attachment": "hair_4_s" },
	{ "name": "hair_5_s", "bone": "hair_5", "attachment": "hair_5_s" },
	{ "name": "hair_5", "bone": "hair_5", "attachment": "hair_5" },
	{ "name": "body", "bone": "bone3", "attachment": "body" },
	{ "name": "foot", "bone": "foot2", "attachment": "foot" },
	{ "name": "foot2", "bone": "foot8", "attachment": "foot" },
	{ "name": "eye_1_R", "bone": "eye_1_R", "attachment": "eye_1_R" },
	{ "name": "eye_R", "bone": "eye_1_R", "color": "ffffff00", "attachment": "eye_R" },
	{ "name": "eye_2_R", "bone": "eye_2_R", "attachment": "eye_2_R" },
	{ "name": "eye_3_R", "bone": "eye_1_R", "attachment": "eye_3_R" },
	{ "name": "eye_1_L", "bone": "eye_1_L", "attachment": "eye_1_L" },
	{ "name": "eye_L", "bone": "eye_1_L", "attachment": "eye_L" },
	{ "name": "eye_2_L", "bone": "eye_2_L", "attachment": "eye_2_L" },
	{ "name": "eye_3_L", "bone": "eye_1_L", "attachment": "eye_3_L" },
	{ "name": "mouth", "bone": "mouth", "attachment": "mouth" },
	{ "name": "hair_2", "bone": "hair_2", "attachment": "hair_2" },
	{ "name": "hair_4", "bone": "hair_4", "attachment": "hair_4" },
	{ "name": "hair_1", "bone": "hair_1", "attachment": "hair_1" },
	{ "name": "hair_3", "bone": "hair_3", "attachment": "hair_3" },
	{ "name": "eyebrow_R", "bone": "eyebrow_R", "attachment": "eyebrow_R" },
	{ "name": "eyebrow_L", "bone": "eyebrow_L", "attachment": "eyebrow_L" }
],
"transform": [
	{
		"name": "bone9",
		"bones": [ "root_face" ],
		"target": "bone9",
		"rotateMix": 0,
		"scaleMix": 0,
		"shearMix": 0
	}
],
"skins": [
	{
		"name": "default",
		"attachments": {
			"body": {
				"body": {
					"type": "mesh",
					"uvs": [ 0.75496, 0.04203, 0.92227, 0.12866, 1, 0.23562, 1, 0.37438, 0.97469, 0.49903, 0.93007, 0.63989, 0.85771, 0.7788, 0.77071, 0.90459, 0.6904, 0.97916, 0.55235, 1, 0.38781, 1, 0.24805, 0.96727, 0.15242, 0.86196, 0.10535, 0.68512, 0.0568, 0.54431, 0, 0.38336, 0, 0.25248, 0.06117, 0.13979, 0.19523, 0.03786, 0.35648, 0, 0.60104, 0, 0.47407, 0.91256, 0.50842, 0.75918, 0.51987, 0.55294, 0.53896, 0.34671, 0.41461, 0.15132 ],
					"triangles": [ 25, 19, 20, 18, 19, 25, 0, 24, 25, 0, 25, 20, 24, 0, 1, 24, 1, 2, 24, 2, 3, 24, 15, 16, 4, 24, 3, 24, 14, 15, 17, 25, 16, 16, 25, 24, 25, 17, 18, 23, 24, 4, 5, 23, 4, 23, 13, 24, 13, 14, 24, 22, 13, 23, 22, 23, 5, 6, 22, 5, 12, 13, 22, 7, 22, 6, 21, 12, 22, 21, 22, 7, 11, 12, 21, 8, 21, 7, 10, 11, 21, 9, 21, 8, 10, 21, 9 ],
					"vertices": [ 3, 5, 222.6, -40.39, 0.00185, 6, 159.66, -42.57, 0.02635, 7, 93.81, -47.08, 0.9718, 3, 5, 197.67, -76.46, 0.01245, 6, 134.24, -78.3, 0.09058, 7, 66.72, -81.57, 0.89697, 3, 5, 165.56, -94.24, 0.05518, 6, 101.89, -95.64, 0.21836, 7, 33.59, -97.35, 0.72646, 4, 4, 178.4, -85.58, 0.00336, 5, 122.88, -96.35, 0.16189, 6, 59.18, -97.17, 0.34768, 7, -9.15, -96.84, 0.48707, 4, 4, 139.64, -85.5, 0.04206, 5, 84.27, -92.99, 0.3444, 6, 20.62, -93.28, 0.37344, 7, -47.47, -91.12, 0.24011, 4, 4, 95.41, -82.12, 0.20437, 5, 40.48, -85.86, 0.45376, 6, -23.06, -85.55, 0.26268, 7, -90.75, -81.33, 0.07919, 4, 4, 50.99, -72.93, 0.50269, 5, -3, -72.94, 0.37637, 6, -66.36, -72.04, 0.10928, 7, -133.35, -65.78, 0.01166, 4, 4, 10.17, -60.19, 0.79491, 5, -42.59, -56.78, 0.18567, 6, -105.73, -55.34, 0.0193, 7, -171.88, -47.23, 1.2E-4, 3, 4, -14.83, -46.71, 0.96593, 5, -66.35, -41.23, 0.03358, 6, -129.28, -39.47, 4.9E-4, 2, 4, -25.03, -19.12, 0.99758, 5, -74.18, -12.87, 0.00242, 2, 4, -29.62, 14.8, 0.995, 5, -75.87, 21.32, 0.005, 3, 4, -23.52, 44.96, 0.94445, 5, -67.24, 50.85, 0.05473, 6, -128.9, 52.62, 8.2E-4, 4, 4, 5.96, 69.02, 0.72367, 5, -35.82, 72.32, 0.2304, 6, -97.2, 73.65, 0.03995, 7, -157.23, 81.21, 0.00598, 4, 4, 58.62, 86.02, 0.42049, 5, 18.09, 84.79, 0.36788, 6, -43.12, 85.38, 0.1594, 7, -102.65, 90.36, 0.05222, 4, 4, 100.25, 101.83, 0.13911, 5, 60.91, 97.01, 0.37208, 6, -0.14, 97.02, 0.28788, 7, -59.17, 99.95, 0.20092, 4, 4, 147.79, 120.18, 0.02656, 5, 109.84, 111.26, 0.21562, 6, 48.98, 110.6, 0.33166, 7, -9.46, 111.18, 0.42616, 4, 4, 187.74, 125.58, 0.0014, 5, 150.1, 113.25, 0.07855, 6, 89.27, 112.04, 0.25302, 7, 30.85, 110.7, 0.66702, 3, 5, 185.4, 102.26, 0.0249, 6, 124.41, 100.57, 0.13348, 7, 65.4, 97.57, 0.84162, 3, 5, 218.13, 75.96, 0.00569, 6, 156.78, 73.82, 0.0512, 7, 96.47, 69.32, 0.94311, 3, 5, 231.43, 43.04, 2.8E-4, 6, 169.63, 40.72, 0.01038, 7, 107.73, 35.64, 0.98934, 2, 6, 171.45, -10.11, 0.0024, 7, 107.13, -15.22, 0.9976, 1, 4, -0.53, 0.63, 1, 3, 4, 47.25, -0.12, 0.57621, 5, -0.55, -0.08, 0.42379, 6, -62.92, 0.78, 0, 4, 4, 110.52, 6.02, 1.0E-4, 5, 63.01, 0.68, 0.40122, 6, 0.65, 0.67, 0.59866, 7, -62.96, 3.67, 2.0E-5, 3, 5, 126.65, -0.15, 2.1E-4, 6, 64.27, -1.03, 0.42982, 7, 0.51, -1.05, 0.56997, 3, 5, 185.48, 28.66, 3.0E-5, 6, 123.49, 26.97, 0.00815, 7, 60.98, 24.1, 0.99182 ],
					"hull": 21,
					"edges": [ 18, 16, 16, 14, 14, 12, 12, 10, 10, 8, 8, 6, 6, 4, 4, 2, 2, 0, 0, 40, 38, 40, 38, 36, 36, 34, 34, 32, 30, 32, 30, 28, 28, 26, 26, 24, 24, 22, 18, 20, 22, 20 ],
					"width": 208,
					"height": 308
				}
			},
			"body_2": {
				"body_2": { "x": 20.26, "y": -5.2, "rotation": 150, "width": 170, "height": 143 }
			},
			"body_s": {
				"body_s": {
					"type": "mesh",
					"uvs": [ 0.75496, 0.04203, 0.92227, 0.12866, 1, 0.23562, 1, 0.37438, 0.97469, 0.49903, 0.93007, 0.63989, 0.85771, 0.7788, 0.77071, 0.90459, 0.6904, 0.97916, 0.55235, 1, 0.38781, 1, 0.24805, 0.96727, 0.15242, 0.86196, 0.10535, 0.68512, 0.0568, 0.54431, 0, 0.38336, 0, 0.25248, 0.06117, 0.13979, 0.19523, 0.03786, 0.35648, 0, 0.60104, 0, 0.47407, 0.91256, 0.50842, 0.75918, 0.51987, 0.55294, 0.53896, 0.34671, 0.41461, 0.15132 ],
					"triangles": [ 25, 19, 20, 18, 19, 25, 0, 24, 25, 0, 25, 20, 24, 0, 1, 24, 1, 2, 24, 2, 3, 24, 15, 16, 4, 24, 3, 24, 14, 15, 17, 25, 16, 16, 25, 24, 25, 17, 18, 23, 24, 4, 5, 23, 4, 23, 13, 24, 13, 14, 24, 22, 13, 23, 22, 23, 5, 6, 22, 5, 12, 13, 22, 7, 22, 6, 21, 12, 22, 21, 22, 7, 11, 12, 21, 8, 21, 7, 10, 11, 21, 9, 21, 8, 10, 21, 9 ],
					"vertices": [ 3, 5, 222.6, -40.39, 0.00185, 6, 159.66, -42.57, 0.02635, 7, 93.81, -47.08, 0.9718, 3, 5, 197.67, -76.46, 0.01245, 6, 134.24, -78.3, 0.09058, 7, 66.72, -81.57, 0.89697, 3, 5, 165.56, -94.24, 0.05518, 6, 101.89, -95.64, 0.21836, 7, 33.59, -97.35, 0.72646, 4, 4, 178.4, -85.58, 0.00336, 5, 122.88, -96.35, 0.16189, 6, 59.18, -97.17, 0.34768, 7, -9.15, -96.84, 0.48707, 4, 4, 139.64, -85.5, 0.04206, 5, 84.27, -92.99, 0.3444, 6, 20.62, -93.28, 0.37344, 7, -47.47, -91.12, 0.24011, 4, 4, 95.41, -82.12, 0.20437, 5, 40.48, -85.86, 0.45376, 6, -23.06, -85.55, 0.26268, 7, -90.75, -81.33, 0.07919, 4, 4, 50.99, -72.93, 0.50269, 5, -3, -72.94, 0.37637, 6, -66.36, -72.04, 0.10928, 7, -133.35, -65.78, 0.01166, 4, 4, 10.17, -60.19, 0.79491, 5, -42.59, -56.78, 0.18567, 6, -105.73, -55.34, 0.0193, 7, -171.88, -47.23, 1.2E-4, 3, 4, -14.83, -46.71, 0.96593, 5, -66.35, -41.23, 0.03358, 6, -129.28, -39.47, 4.9E-4, 2, 4, -25.03, -19.12, 0.99758, 5, -74.18, -12.87, 0.00242, 2, 4, -29.62, 14.8, 0.995, 5, -75.87, 21.32, 0.005, 3, 4, -23.52, 44.96, 0.94445, 5, -67.24, 50.85, 0.05473, 6, -128.9, 52.62, 8.2E-4, 4, 4, 5.96, 69.02, 0.72367, 5, -35.82, 72.32, 0.2304, 6, -97.2, 73.65, 0.03995, 7, -157.23, 81.21, 0.00598, 4, 4, 58.62, 86.02, 0.42049, 5, 18.09, 84.79, 0.36788, 6, -43.12, 85.38, 0.1594, 7, -102.65, 90.36, 0.05222, 4, 4, 100.25, 101.83, 0.13911, 5, 60.91, 97.01, 0.37208, 6, -0.14, 97.02, 0.28788, 7, -59.17, 99.95, 0.20092, 4, 4, 147.79, 120.18, 0.02656, 5, 109.84, 111.26, 0.21562, 6, 48.98, 110.6, 0.33166, 7, -9.46, 111.18, 0.42616, 4, 4, 187.74, 125.58, 0.0014, 5, 150.1, 113.25, 0.07855, 6, 89.27, 112.04, 0.25302, 7, 30.85, 110.7, 0.66702, 3, 5, 185.4, 102.26, 0.0249, 6, 124.41, 100.57, 0.13348, 7, 65.4, 97.57, 0.84162, 3, 5, 218.13, 75.96, 0.00569, 6, 156.78, 73.82, 0.0512, 7, 96.47, 69.32, 0.94311, 3, 5, 231.43, 43.04, 2.8E-4, 6, 169.63, 40.72, 0.01038, 7, 107.73, 35.64, 0.98934, 2, 6, 171.45, -10.11, 0.0024, 7, 107.13, -15.22, 0.9976, 1, 4, -0.53, 0.63, 1, 3, 4, 47.25, -0.12, 0.57621, 5, -0.55, -0.08, 0.42379, 6, -62.92, 0.78, 0, 4, 4, 110.52, 6.02, 1.0E-4, 5, 63.01, 0.68, 0.40122, 6, 0.65, 0.67, 0.59866, 7, -62.96, 3.67, 2.0E-5, 3, 5, 126.65, -0.15, 2.1E-4, 6, 64.27, -1.03, 0.42982, 7, 0.51, -1.05, 0.56997, 3, 5, 185.48, 28.66, 3.0E-5, 6, 123.49, 26.97, 0.00815, 7, 60.98, 24.1, 0.99182 ],
					"hull": 21,
					"edges": [ 18, 16, 16, 14, 14, 12, 12, 10, 10, 8, 8, 6, 6, 4, 4, 2, 2, 0, 0, 40, 38, 40, 38, 36, 36, 34, 34, 32, 30, 32, 30, 28, 28, 26, 26, 24, 24, 22, 18, 20, 22, 20 ],
					"width": 208,
					"height": 308
				}
			},
			"eye_1_L": {
				"eye_1_L": { "x": 1.1, "y": -5.49, "width": 71, "height": 51 }
			},
			"eye_1_R": {
				"eye_1_R": { "x": -1.86, "y": -2.24, "width": 88, "height": 56 }
			},
			"eye_1_s_L": {
				"eye_1_s_L": { "x": 1.1, "y": -5.49, "width": 91, "height": 75 }
			},
			"eye_1_s_R": {
				"eye_1_s_R": { "x": -1.86, "y": -2.24, "width": 109, "height": 79 }
			},
			"eye_2_L": {
				"eye_2_L": { "width": 42, "height": 45 },
				"eye_happy": { "width": 46, "height": 48 },
				"eye_hit": { "width": 46, "height": 54 }
			},
			"eye_2_R": {
				"eye_2_R": { "width": 46, "height": 50 },
				"eye_happy": { "scaleX": -1, "width": 46, "height": 48 },
				"eye_hit": { "scaleX": -1, "width": 46, "height": 54 }
			},
			"eye_3_L": {
				"eye_3_L": { "x": 1.22, "y": -5.38, "width": 79, "height": 63 }
			},
			"eye_3_R": {
				"eye_3_R": { "x": -1.66, "y": -1.8, "width": 97, "height": 67 }
			},
			"eye_L": {
				"eye_L": {
					"type": "clipping",
					"end": "eye_2_L",
					"vertexCount": 12,
					"vertices": [ -18.35, -24.68, -30.87, -13.11, -33.37, 0.21, -33.37, 15.82, -17.02, 20.74, -0.08, 21.54, 24.71, 20.14, 41.03, 12.61, 36.04, -9.39, 26.36, -24.52, 12.88, -30.87, -2.24, -30.1 ],
					"color": "ce3a3a00"
				}
			},
			"eye_R": {
				"eye_R": {
					"type": "clipping",
					"end": "eye_2_R",
					"vertexCount": 11,
					"vertices": [ -44.42, -3.1, -49.46, 15.44, -30.23, 24.08, -0.69, 27.99, 23.4, 25.18, 42.16, 19.95, 39.76, -1.74, 27.79, -18.51, 5.04, -28.41, -14.99, -27.63, -32.73, -18.06 ],
					"color": "ce3a3a00"
				}
			},
			"eyebrow_L": {
				"eyebrow_L": { "x": 0.92, "y": -5.34, "width": 90, "height": 75 }
			},
			"eyebrow_R": {
				"eyebrow_R": { "x": -3.34, "y": -4.74, "width": 133, "height": 78 }
			},
			"eyebrow_s_L": {
				"eyebrow_s_L": { "x": 0.92, "y": -5.34, "width": 102, "height": 87 }
			},
			"eyebrow_s_R": {
				"eyebrow_s_R": { "x": -3.34, "y": -4.74, "width": 145, "height": 90 }
			},
			"foot": {
				"foot": { "x": 40.92, "y": 32.34, "width": 96, "height": 58 }
			},
			"foot2": {
				"foot": { "x": 40.92, "y": 32.34, "width": 96, "height": 58 }
			},
			"foot_s": {
				"foot_s": { "x": 40.92, "y": 32.34, "width": 108, "height": 70 }
			},
			"foot_s2": {
				"foot_s": { "x": 40.92, "y": 32.34, "width": 108, "height": 70 }
			},
			"hair_1": {
				"hair_1": { "x": 27.09, "y": -1.82, "rotation": 103.1, "width": 53, "height": 80 }
			},
			"hair_2": {
				"hair_2": { "x": 37.05, "y": -3.08, "rotation": 150.93, "width": 109, "height": 78 }
			},
			"hair_2_s": {
				"hair_2_s": { "x": 37.05, "y": -3.08, "rotation": 150.93, "width": 121, "height": 90 }
			},
			"hair_3": {
				"hair_3": { "x": 37.96, "y": 3.82, "rotation": -96.23, "width": 46, "height": 87 }
			},
			"hair_3_s": {
				"hair_3_s": { "x": 37.96, "y": 3.82, "rotation": -96.23, "width": 58, "height": 99 }
			},
			"hair_4": {
				"hair_4": { "x": -16.27, "y": -10.39, "width": 89, "height": 58 }
			},
			"hair_4_s": {
				"hair_4_s": {
					"type": "mesh",
					"uvs": [ 0.90872, 0.05459, 0.97979, 0.17734, 1, 0.28536, 1, 0.46713, 0.94493, 0.59153, 0.83066, 0.69138, 0.71373, 0.76032, 0.604, 0.84035, 0.51811, 0.93621, 0.47616, 1, 0.27065, 1, 0.12206, 0.89277, 0, 0.65801, 0, 0.42738, 0.13004, 0.28151, 0.32531, 0.14112, 0.52124, 0.03935, 0.66914, 0, 0.80326, 0, 0.20084, 0.72789, 0.50869, 0.49204, 0.84525, 0.2904 ],
					"triangles": [ 21, 18, 0, 21, 0, 1, 21, 1, 2, 21, 2, 3, 20, 15, 16, 4, 21, 3, 19, 12, 13, 21, 17, 18, 5, 21, 4, 20, 19, 14, 20, 14, 15, 19, 13, 14, 17, 20, 16, 17, 21, 20, 5, 20, 21, 6, 20, 5, 7, 20, 6, 8, 19, 20, 11, 12, 19, 7, 8, 20, 10, 19, 8, 11, 19, 10, 9, 10, 8 ],
					"vertices": [ 18.13, 19.25, 25.93, 10.97, 28.86, 3.39, 29.73, -8.09, 24.67, -16.8, 14.15, -23.78, 3.4, -28.61, -6.7, -34.21, -14.6, -40.92, -18.46, -45.39, -37.37, -45.39, -51.04, -37.88, -62.27, -21.45, -62.27, -5.3, -50.3, 4.91, -32.34, 14.73, -14.31, 21.86, -3.15, 22.92, 8.21, 23.05, -43.79, -26.34, -15.47, -9.83, 15.49, 4.28 ],
					"hull": 19,
					"edges": [ 36, 0, 0, 2, 2, 4, 4, 6, 6, 8, 8, 10, 10, 12, 12, 14, 14, 16, 16, 18, 18, 20, 20, 22, 22, 24, 24, 26, 26, 28, 28, 30, 30, 32, 34, 36, 32, 34 ],
					"width": 92,
					"height": 70
				}
			},
			"hair_5": {
				"hair_5": { "x": 23.92, "y": -19.99, "rotation": 30.78, "width": 112, "height": 106 }
			},
			"hair_5_s": {
				"hair_5_s": { "x": 23.92, "y": -19.99, "rotation": 30.78, "width": 124, "height": 118 }
			},
			"mouth": {
				"mouth": { "width": 52, "height": 42 },
				"mouth_ag": { "rotation": -11.19, "width": 52, "height": 42 }
			}
		}
	}
],
"animations": {
	"idle_ingame": {
		"bones": {
			"bone3": {
				"translate": [
					{ "curve": 0.25, "c3": 0.75 },
					{ "time": 0.2333, "y": -13.06, "curve": 0.25, "c3": 0.75 },
					{ "time": 0.4667, "curve": 0.25, "c3": 0.75 },
					{ "time": 0.7, "y": -13.06, "curve": 0.25, "c3": 0.75 },
					{ "time": 0.9333, "curve": 0.25, "c3": 0.75 },
					{ "time": 1.1667, "y": -13.06, "curve": 0.25, "c3": 0.75 },
					{ "time": 1.4, "curve": 0.25, "c3": 0.75 },
					{ "time": 1.6333, "y": -13.06, "curve": 0.25, "c3": 0.75 },
					{ "time": 1.8667, "curve": 0.25, "c3": 0.75 },
					{ "time": 2.1, "y": -13.06, "curve": 0.25, "c3": 0.75 },
					{ "time": 2.3333, "curve": 0.25, "c3": 0.75 },
					{ "time": 2.5667, "y": -13.06, "curve": 0.25, "c3": 0.75 },
					{ "time": 2.8 }
				]
			},
			"bone2": {
				"translate": [
					{ "x": -9.26, "curve": 0.375, "c2": 0.5, "c3": 0.75 },
					{ "time": 0.2333, "x": -17.59, "curve": 0.25, "c3": 0.75 },
					{ "time": 0.7, "x": -0.93, "curve": 0.25, "c3": 0.625, "c4": 0.5 },
					{ "time": 0.9333, "x": -9.26, "curve": 0.375, "c2": 0.5, "c3": 0.75 },
					{ "time": 1.1667, "x": -17.59, "curve": 0.25, "c3": 0.75 },
					{ "time": 1.6333, "x": -0.93, "curve": 0.25, "c3": 0.625, "c4": 0.5 },
					{ "time": 1.8667, "x": -9.26, "curve": 0.375, "c2": 0.5, "c3": 0.75 },
					{ "time": 2.1, "x": -17.59, "curve": 0.25, "c3": 0.75 },
					{ "time": 2.5667, "x": -0.93, "curve": 0.25, "c3": 0.625, "c4": 0.5 },
					{ "time": 2.8, "x": -9.26 }
				]
			},
			"bone4": {
				"rotate": [
					{ "angle": 6.45, "curve": 0.381, "c2": 0.59, "c3": 0.729 },
					{ "time": 0.0667, "angle": 5.79, "curve": 0.25, "c3": 0.75 },
					{ "time": 0.3, "angle": 8.7, "curve": 0.25, "c3": 0.75 },
					{ "time": 0.5333, "angle": 5.79, "curve": 0.25, "c3": 0.75 },
					{ "time": 0.7667, "angle": 8.7, "curve": 0.243, "c3": 0.658, "c4": 0.64 },
					{ "time": 0.9333, "angle": 6.45, "curve": 0.381, "c2": 0.59, "c3": 0.729 },
					{ "time": 1, "angle": 5.79, "curve": 0.25, "c3": 0.75 },
					{ "time": 1.2333, "angle": 8.7, "curve": 0.25, "c3": 0.75 },
					{ "time": 1.4667, "angle": 5.79, "curve": 0.25, "c3": 0.75 },
					{ "time": 1.7, "angle": 8.7, "curve": 0.243, "c3": 0.658, "c4": 0.64 },
					{ "time": 1.8667, "angle": 6.45, "curve": 0.381, "c2": 0.59, "c3": 0.729 },
					{ "time": 1.9333, "angle": 5.79, "curve": 0.25, "c3": 0.75 },
					{ "time": 2.1667, "angle": 8.7, "curve": 0.25, "c3": 0.75 },
					{ "time": 2.4, "angle": 5.79, "curve": 0.25, "c3": 0.75 },
					{ "time": 2.6333, "angle": 8.7, "curve": 0.243, "c3": 0.658, "c4": 0.64 },
					{ "time": 2.8, "angle": 6.45 }
				]
			},
			"bone5": {
				"rotate": [
					{ "angle": -2.38, "curve": 0.367, "c2": 0.63, "c3": 0.705 },
					{ "time": 0.0333, "angle": -2.08, "curve": 0.25, "c3": 0.75 },
					{ "time": 0.2667, "angle": -6, "curve": 0.25, "c3": 0.75 },
					{ "time": 0.5, "angle": -2.08, "curve": 0.25, "c3": 0.75 },
					{ "time": 0.7333, "angle": -6, "curve": 0.25, "c3": 0.75 },
					{ "time": 0.9667, "angle": -2.08, "curve": 0.25, "c3": 0.75 },
					{ "time": 1.2, "angle": -6, "curve": 0.25, "c3": 0.75 },
					{ "time": 1.4333, "angle": -2.08, "curve": 0.25, "c3": 0.75 },
					{ "time": 1.6667, "angle": -6, "curve": 0.25, "c3": 0.75 },
					{ "time": 1.9, "angle": -2.08, "curve": 0.25, "c3": 0.75 },
					{ "time": 2.1333, "angle": -6, "curve": 0.25, "c3": 0.75 },
					{ "time": 2.3667, "angle": -2.08, "curve": 0.25, "c3": 0.75 },
					{ "time": 2.6, "angle": -6, "curve": 0.244, "c3": 0.697, "c4": 0.78 },
					{ "time": 2.8, "angle": -2.38 }
				]
			},
			"bone6": {
				"rotate": [
					{ "angle": -1, "curve": 0.367, "c2": 0.63, "c3": 0.705 },
					{ "time": 0.0333, "angle": -0.82, "curve": 0.25, "c3": 0.75 },
					{ "time": 0.2667, "angle": -3.2, "curve": 0.25, "c3": 0.75 },
					{ "time": 0.5, "angle": -0.82, "curve": 0.25, "c3": 0.75 },
					{ "time": 0.7333, "angle": -3.2, "curve": 0.25, "c3": 0.75 },
					{ "time": 0.9667, "angle": -0.82, "curve": 0.25, "c3": 0.75 },
					{ "time": 1.2, "angle": -3.2, "curve": 0.25, "c3": 0.75 },
					{ "time": 1.4333, "angle": -0.82, "curve": 0.25, "c3": 0.75 },
					{ "time": 1.6667, "angle": -3.2, "curve": 0.25, "c3": 0.75 },
					{ "time": 1.9, "angle": -0.82, "curve": 0.25, "c3": 0.75 },
					{ "time": 2.1333, "angle": -3.2, "curve": 0.25, "c3": 0.75 },
					{ "time": 2.3667, "angle": -0.82, "curve": 0.25, "c3": 0.75 },
					{ "time": 2.6, "angle": -3.2, "curve": 0.244, "c3": 0.697, "c4": 0.78 },
					{ "time": 2.8, "angle": -1 }
				]
			},
			"bone8": {
				"rotate": [
					{ "angle": -10.85, "curve": 0.38, "c2": 0.53, "c3": 0.745 },
					{ "time": 0.1, "angle": -18.82, "curve": 0.25, "c3": 0.75 },
					{ "time": 0.3333, "angle": 0.82, "curve": 0.25, "c3": 0.75 },
					{ "time": 0.5667, "angle": -18.82, "curve": 0.25, "c3": 0.75 },
					{ "time": 0.8, "angle": 0.82, "curve": 0.25, "c3": 0.75 },
					{ "time": 1.0333, "angle": -18.82, "curve": 0.25, "c3": 0.75 },
					{ "time": 1.2667, "angle": 0.82, "curve": 0.25, "c3": 0.75 },
					{ "time": 1.5, "angle": -18.82, "curve": 0.25, "c3": 0.75 },
					{ "time": 1.7333, "angle": 0.82, "curve": 0.25, "c3": 0.75 },
					{ "time": 1.9667, "angle": -18.82, "curve": 0.25, "c3": 0.75 },
					{ "time": 2.2, "angle": 0.82, "curve": 0.25, "c3": 0.75 },
					{ "time": 2.4333, "angle": -18.82, "curve": 0.25, "c3": 0.75 },
					{ "time": 2.6667, "angle": 0.82, "curve": 0.246, "c3": 0.633, "c4": 0.54 },
					{ "time": 2.8, "angle": -10.85 }
				]
			},
			"bone7": {
				"rotate": [
					{ "angle": -2.18, "curve": 0.367, "c2": 0.46, "c3": 0.754 },
					{ "time": 0.1333, "angle": 0.62, "curve": 0.25, "c3": 0.75 },
					{ "time": 0.3667, "angle": -4.09, "curve": 0.25, "c3": 0.75 },
					{ "time": 0.6, "angle": 0.62, "curve": 0.25, "c3": 0.75 },
					{ "time": 0.8333, "angle": -4.09, "curve": 0.25, "c3": 0.75 },
					{ "time": 1.0667, "angle": 0.62, "curve": 0.25, "c3": 0.75 },
					{ "time": 1.3, "angle": -4.09, "curve": 0.25, "c3": 0.75 },
					{ "time": 1.5333, "angle": 0.62, "curve": 0.25, "c3": 0.75 },
					{ "time": 1.7667, "angle": -4.09, "curve": 0.25, "c3": 0.75 },
					{ "time": 2, "angle": 0.62, "curve": 0.25, "c3": 0.75 },
					{ "time": 2.2333, "angle": -4.09, "curve": 0.25, "c3": 0.75 },
					{ "time": 2.4667, "angle": 0.62, "curve": 0.25, "c3": 0.75 },
					{ "time": 2.7, "angle": -4.09, "curve": 0.255, "c3": 0.62, "c4": 0.47 },
					{ "time": 2.8, "angle": -2.18 }
				]
			},
			"bone10": {
				"translate": [
					{ "x": 1.34, "y": 2.49, "curve": 0.342, "c2": 0.36, "c3": 0.757 },
					{ "time": 0.3333, "x": -1.63, "y": 16.57, "curve": 0.25, "c3": 0.75 },
					{ "time": 0.8, "x": 2.2, "y": -1.58, "curve": 0.271, "c3": 0.619, "c4": 0.41 },
					{ "time": 0.9333, "x": 1.34, "y": 2.49, "curve": 0.342, "c2": 0.36, "c3": 0.757 },
					{ "time": 1.2667, "x": -1.63, "y": 16.57, "curve": 0.25, "c3": 0.75 },
					{ "time": 1.7333, "x": 2.2, "y": -1.58, "curve": 0.271, "c3": 0.619, "c4": 0.41 },
					{ "time": 1.8667, "x": 1.34, "y": 2.49, "curve": 0.342, "c2": 0.36, "c3": 0.757 },
					{ "time": 2.2, "x": -1.63, "y": 16.57, "curve": 0.25, "c3": 0.75 },
					{ "time": 2.6667, "x": 2.2, "y": -1.58, "curve": 0.271, "c3": 0.619, "c4": 0.41 },
					{ "time": 2.8, "x": 1.34, "y": 2.49 }
				]
			},
			"bone9": {
				"translate": [
					{ "x": -0.09, "y": -2.95, "curve": 0.381, "c2": 0.59, "c3": 0.729 },
					{ "time": 0.0667, "curve": 0.25, "c3": 0.75 },
					{ "time": 0.3, "x": -0.38, "y": -13.14, "curve": 0.25, "c3": 0.75 },
					{ "time": 0.5333, "curve": 0.25, "c3": 0.75 },
					{ "time": 0.7667, "x": -0.38, "y": -13.14, "curve": 0.243, "c3": 0.658, "c4": 0.64 },
					{ "time": 0.9333, "x": -0.09, "y": -2.95, "curve": 0.381, "c2": 0.59, "c3": 0.729 },
					{ "time": 1, "curve": 0.25, "c3": 0.75 },
					{ "time": 1.2333, "x": -0.38, "y": -13.14, "curve": 0.25, "c3": 0.75 },
					{ "time": 1.4667, "curve": 0.25, "c3": 0.75 },
					{ "time": 1.7, "x": -0.38, "y": -13.14, "curve": 0.243, "c3": 0.658, "c4": 0.64 },
					{ "time": 1.8667, "x": -0.09, "y": -2.95, "curve": 0.381, "c2": 0.59, "c3": 0.729 },
					{ "time": 1.9333, "curve": 0.25, "c3": 0.75 },
					{ "time": 2.1667, "x": -0.38, "y": -13.14, "curve": 0.25, "c3": 0.75 },
					{ "time": 2.4, "curve": 0.25, "c3": 0.75 },
					{ "time": 2.6333, "x": -0.38, "y": -13.14, "curve": 0.243, "c3": 0.658, "c4": 0.64 },
					{ "time": 2.8, "x": -0.09, "y": -2.95 }
				]
			},
			"root_face2": {
				"scale": [
					{ "y": 0.864, "curve": 0.367, "c2": 0.46, "c3": 0.754 },
					{ "time": 0.1333, "curve": 0.25, "c3": 0.75 },
					{ "time": 0.3667, "y": 0.772, "curve": 0.255, "c3": 0.62, "c4": 0.47 },
					{ "time": 0.4667, "y": 0.864, "curve": 0.367, "c2": 0.46, "c3": 0.754 },
					{ "time": 0.6, "curve": 0.25, "c3": 0.75 },
					{ "time": 0.8333, "y": 0.772, "curve": 0.25, "c3": 0.75 },
					{ "time": 1.0667, "curve": 0.25, "c3": 0.75 },
					{ "time": 1.3, "y": 0.772, "curve": 0.255, "c3": 0.62, "c4": 0.47 },
					{ "time": 1.4, "y": 0.864, "curve": 0.367, "c2": 0.46, "c3": 0.754 },
					{ "time": 1.5333, "curve": 0.25, "c3": 0.75 },
					{ "time": 1.7667, "y": 0.772, "curve": 0.255, "c3": 0.62, "c4": 0.47 },
					{ "time": 1.8667, "y": 0.864, "curve": 0.367, "c2": 0.46, "c3": 0.754 },
					{ "time": 2, "curve": 0.25, "c3": 0.75 },
					{ "time": 2.2333, "y": 0.772, "curve": 0.25, "c3": 0.75 },
					{ "time": 2.4667, "curve": 0.25, "c3": 0.75 },
					{ "time": 2.7, "y": 0.772, "curve": 0.255, "c3": 0.62, "c4": 0.47 },
					{ "time": 2.8, "y": 0.864 }
				]
			},
			"eye_2_L": {
				"translate": [
					{ "x": -22.62, "y": 7.15, "curve": 0.25, "c3": 0.75 },
					{ "time": 0.1333, "x": 27.89, "y": 2.14, "curve": "stepped" },
					{ "time": 1.4, "x": 27.89, "y": 2.14, "curve": 0.25, "c3": 0.75 },
					{ "time": 1.5333, "x": -22.62, "y": 7.15 }
				]
			},
			"eye_2_R": {
				"translate": [
					{ "x": -32.36, "y": 7.15, "curve": 0.25, "c3": 0.75 },
					{ "time": 0.1333, "x": 27.89, "y": -7.86, "curve": "stepped" },
					{ "time": 1.4, "x": 27.89, "y": -7.86, "curve": 0.25, "c3": 0.75 },
					{ "time": 1.5333, "x": -32.36, "y": 7.15 }
				]
			},
			"eye_1_R": {
				"scale": [
					{ "x": 1.174, "y": 1.174, "curve": 0.25, "c3": 0.75 },
					{ "time": 0.0667, "y": 0.185, "curve": 0.25, "c3": 0.75 },
					{ "time": 0.1333, "curve": "stepped" },
					{ "time": 1.4, "curve": 0.25, "c3": 0.75 },
					{ "time": 1.4667, "y": 0.185, "curve": 0.25, "c3": 0.75 },
					{ "time": 1.5333, "x": 1.174, "y": 1.174 }
				]
			},
			"eye_1_L": {
				"scale": [
					{ "curve": 0.25, "c3": 0.75 },
					{ "time": 0.0667, "y": 0.185, "curve": 0.25, "c3": 0.75 },
					{ "time": 0.1333, "x": 1.233, "y": 1.233, "curve": "stepped" },
					{ "time": 1.4, "x": 1.233, "y": 1.233, "curve": 0.25, "c3": 0.75 },
					{ "time": 1.4667, "y": 0.185, "curve": 0.25, "c3": 0.75 },
					{ "time": 1.5333 }
				]
			},
			"mouth": {
				"rotate": [
					{ "curve": 0.25, "c3": 0.75 },
					{ "time": 0.1333, "angle": -19.1, "curve": "stepped" },
					{ "time": 1.4, "angle": -19.1, "curve": 0.25, "c3": 0.75 },
					{ "time": 1.5333 }
				],
				"translate": [
					{ "x": 15.17, "curve": 0.25, "c3": 0.75 },
					{ "time": 0.1333, "x": -12.8, "curve": "stepped" },
					{ "time": 1.4, "x": -12.8, "curve": 0.25, "c3": 0.75 },
					{ "time": 1.5333, "x": 15.17 }
				]
			},
			"root_eyebrow": {
				"translate": [
					{ "x": -21.45, "y": 4.29, "curve": 0.25, "c3": 0.75 },
					{ "time": 0.1333, "curve": "stepped" },
					{ "time": 1.4, "curve": 0.25, "c3": 0.75 },
					{ "time": 1.5333, "x": -21.45, "y": 4.29 }
				]
			},
			"eyebrow_L": {
				"translate": [
					{ "x": 13.12, "y": -7.86, "curve": 0.25, "c3": 0.75 },
					{ "time": 0.1333, "x": 2.15, "y": 34.32, "curve": "stepped" },
					{ "time": 1.4, "x": 2.15, "y": 34.32, "curve": 0.25, "c3": 0.75 },
					{ "time": 1.5333, "x": 13.12, "y": -7.86 }
				]
			},
			"eyebrow_R": {
				"translate": [
					{ "y": 30.03, "curve": 0.25, "c3": 0.75 },
					{ "time": 0.1333, "x": -1.43, "y": -12.87, "curve": "stepped" },
					{ "time": 1.4, "x": -1.43, "y": -12.87, "curve": 0.25, "c3": 0.75 },
					{ "time": 1.5333, "y": 30.03 }
				]
			},
			"hair_2": {
				"rotate": [
					{ "angle": -9.18, "curve": 0.25, "c3": 0.75 },
					{ "time": 0.2333, "angle": 6.18, "curve": 0.25, "c3": 0.75 },
					{ "time": 0.4667, "angle": -9.18, "curve": 0.25, "c3": 0.75 },
					{ "time": 0.7, "angle": 6.18, "curve": 0.25, "c3": 0.75 },
					{ "time": 0.9333, "angle": -9.18, "curve": 0.25, "c3": 0.75 },
					{ "time": 1.1667, "angle": 6.18, "curve": 0.25, "c3": 0.75 },
					{ "time": 1.4, "angle": -9.18, "curve": 0.25, "c3": 0.75 },
					{ "time": 1.6333, "angle": 6.18, "curve": 0.25, "c3": 0.75 },
					{ "time": 1.8667, "angle": -9.18, "curve": 0.25, "c3": 0.75 },
					{ "time": 2.1, "angle": 6.18, "curve": 0.25, "c3": 0.75 },
					{ "time": 2.3333, "angle": -9.18, "curve": 0.25, "c3": 0.75 },
					{ "time": 2.5667, "angle": 6.18, "curve": 0.25, "c3": 0.75 },
					{ "time": 2.8, "angle": -9.18 }
				]
			},
			"hair_5": {
				"rotate": [
					{ "angle": 4.42, "curve": 0.25, "c3": 0.75 },
					{ "time": 0.2333, "angle": -3.36, "curve": 0.25, "c3": 0.75 },
					{ "time": 0.4667, "angle": 4.42, "curve": 0.25, "c3": 0.75 },
					{ "time": 0.7, "angle": -3.36, "curve": 0.25, "c3": 0.75 },
					{ "time": 0.9333, "angle": 4.42, "curve": 0.25, "c3": 0.75 },
					{ "time": 1.1667, "angle": -3.36, "curve": 0.25, "c3": 0.75 },
					{ "time": 1.4, "angle": 4.42, "curve": 0.25, "c3": 0.75 },
					{ "time": 1.6333, "angle": -3.36, "curve": 0.25, "c3": 0.75 },
					{ "time": 1.8667, "angle": 4.42, "curve": 0.25, "c3": 0.75 },
					{ "time": 2.1, "angle": -3.36, "curve": 0.25, "c3": 0.75 },
					{ "time": 2.3333, "angle": 4.42, "curve": 0.25, "c3": 0.75 },
					{ "time": 2.5667, "angle": -3.36, "curve": 0.25, "c3": 0.75 },
					{ "time": 2.8, "angle": 4.42 }
				]
			},
			"hair_1": {
				"rotate": [
					{ "angle": -5.16, "curve": 0.25, "c3": 0.75 },
					{ "time": 0.2333, "angle": 4.23, "curve": 0.25, "c3": 0.75 },
					{ "time": 0.4667, "angle": -5.16, "curve": 0.25, "c3": 0.75 },
					{ "time": 0.7, "angle": 4.23, "curve": 0.25, "c3": 0.75 },
					{ "time": 0.9333, "angle": -5.16, "curve": 0.25, "c3": 0.75 },
					{ "time": 1.1667, "angle": 4.23, "curve": 0.25, "c3": 0.75 },
					{ "time": 1.4, "angle": -5.16, "curve": 0.25, "c3": 0.75 },
					{ "time": 1.6333, "angle": 4.23, "curve": 0.25, "c3": 0.75 },
					{ "time": 1.8667, "angle": -5.16, "curve": 0.25, "c3": 0.75 },
					{ "time": 2.1, "angle": 4.23, "curve": 0.25, "c3": 0.75 },
					{ "time": 2.3333, "angle": -5.16, "curve": 0.25, "c3": 0.75 },
					{ "time": 2.5667, "angle": 4.23, "curve": 0.25, "c3": 0.75 },
					{ "time": 2.8, "angle": -5.16 }
				]
			},
			"hair_3": {
				"rotate": [
					{ "angle": 2.89, "curve": 0.303, "c2": 0.22, "c3": 0.756 },
					{ "time": 0.2, "angle": -8.71, "curve": 0.25, "c3": 0.75 },
					{ "time": 0.4333, "angle": 3.86, "curve": 0.25, "c3": 0.75 },
					{ "time": 0.6667, "angle": -8.71, "curve": 0.25, "c3": 0.75 },
					{ "time": 0.9, "angle": 3.86, "curve": 0.25, "c3": 0.75 },
					{ "time": 1.1333, "angle": -8.71, "curve": 0.25, "c3": 0.75 },
					{ "time": 1.3667, "angle": 3.86, "curve": 0.25, "c3": 0.75 },
					{ "time": 1.6, "angle": -8.71, "curve": 0.25, "c3": 0.75 },
					{ "time": 1.8333, "angle": 3.86, "curve": 0.25, "c3": 0.75 },
					{ "time": 2.0667, "angle": -8.71, "curve": 0.25, "c3": 0.75 },
					{ "time": 2.3, "angle": 3.86, "curve": 0.25, "c3": 0.75 },
					{ "time": 2.5333, "angle": -8.71, "curve": 0.25, "c3": 0.75 },
					{ "time": 2.7667, "angle": 3.86, "curve": 0.295, "c3": 0.633, "c4": 0.37 },
					{ "time": 2.8, "angle": 2.89 }
				]
			},
			"hair_4": {
				"rotate": [
					{ "angle": -10.32, "curve": 0.38, "c2": 0.53, "c3": 0.745 },
					{ "time": 0.1, "angle": -1.26, "curve": 0.25, "c3": 0.75 },
					{ "time": 0.3333, "angle": -23.61, "curve": 0.25, "c3": 0.75 },
					{ "time": 0.5667, "angle": -1.26, "curve": 0.25, "c3": 0.75 },
					{ "time": 0.8, "angle": -23.61, "curve": 0.25, "c3": 0.75 },
					{ "time": 1.0333, "angle": -1.26, "curve": 0.25, "c3": 0.75 },
					{ "time": 1.2667, "angle": -23.61, "curve": 0.25, "c3": 0.75 },
					{ "time": 1.5, "angle": -1.26, "curve": 0.25, "c3": 0.75 },
					{ "time": 1.7333, "angle": -23.61, "curve": 0.25, "c3": 0.75 },
					{ "time": 1.9667, "angle": -1.26, "curve": 0.25, "c3": 0.75 },
					{ "time": 2.2, "angle": -23.61, "curve": 0.25, "c3": 0.75 },
					{ "time": 2.4333, "angle": -1.26, "curve": 0.25, "c3": 0.75 },
					{ "time": 2.6667, "angle": -23.61, "curve": 0.246, "c3": 0.633, "c4": 0.54 },
					{ "time": 2.8, "angle": -10.32 }
				]
			}
		}
	},
	"idle_inhome": {
		"bones": {
			"bone3": {
				"translate": [
					{ "curve": 0.25, "c3": 0.75 },
					{ "time": 0.2333, "y": -13.06, "curve": 0.25, "c3": 0.75 },
					{ "time": 0.4667, "curve": 0.25, "c3": 0.75 },
					{ "time": 0.7, "y": -13.06, "curve": 0.25, "c3": 0.75 },
					{ "time": 0.9333, "curve": 0.25, "c3": 0.75 },
					{ "time": 1.1667, "y": -13.06, "curve": 0.25, "c3": 0.75 },
					{ "time": 1.4, "curve": 0.25, "c3": 0.75 },
					{ "time": 1.6333, "y": -13.06, "curve": 0.25, "c3": 0.75 },
					{ "time": 1.8667, "curve": 0.25, "c3": 0.75 },
					{ "time": 2.1, "y": -13.06, "curve": 0.25, "c3": 0.75 },
					{ "time": 2.3333, "curve": 0.25, "c3": 0.75 },
					{ "time": 2.5667, "y": -13.06, "curve": 0.25, "c3": 0.75 },
					{ "time": 2.8 }
				]
			},
			"bone2": {
				"translate": [
					{ "x": -9.26, "curve": 0.375, "c2": 0.5, "c3": 0.75 },
					{ "time": 0.2333, "x": -17.59, "curve": 0.25, "c3": 0.75 },
					{ "time": 0.7, "x": -0.93, "curve": 0.25, "c3": 0.625, "c4": 0.5 },
					{ "time": 0.9333, "x": -9.26, "curve": 0.375, "c2": 0.5, "c3": 0.75 },
					{ "time": 1.1667, "x": -17.59, "curve": 0.25, "c3": 0.75 },
					{ "time": 1.6333, "x": -0.93, "curve": 0.25, "c3": 0.625, "c4": 0.5 },
					{ "time": 1.8667, "x": -9.26, "curve": 0.375, "c2": 0.5, "c3": 0.75 },
					{ "time": 2.1, "x": -17.59, "curve": 0.25, "c3": 0.75 },
					{ "time": 2.5667, "x": -0.93, "curve": 0.25, "c3": 0.625, "c4": 0.5 },
					{ "time": 2.8, "x": -9.26 }
				]
			},
			"bone10": {
				"translate": [
					{ "x": 0.91, "y": -5.03, "curve": 0.342, "c2": 0.36, "c3": 0.757 },
					{ "time": 0.3333, "x": -2.06, "y": 9.04, "curve": 0.25, "c3": 0.75 },
					{ "time": 0.8, "x": 1.77, "y": -9.11, "curve": 0.271, "c3": 0.619, "c4": 0.41 },
					{ "time": 0.9333, "x": 0.91, "y": -5.03, "curve": 0.342, "c2": 0.36, "c3": 0.757 },
					{ "time": 1.2667, "x": -2.06, "y": 9.04, "curve": 0.25, "c3": 0.75 },
					{ "time": 1.7333, "x": 1.77, "y": -9.11, "curve": 0.271, "c3": 0.619, "c4": 0.41 },
					{ "time": 1.8667, "x": 0.91, "y": -5.03, "curve": 0.342, "c2": 0.36, "c3": 0.757 },
					{ "time": 2.2, "x": -2.06, "y": 9.04, "curve": 0.25, "c3": 0.75 },
					{ "time": 2.6667, "x": 1.77, "y": -9.11, "curve": 0.271, "c3": 0.619, "c4": 0.41 },
					{ "time": 2.8, "x": 0.91, "y": -5.03 }
				]
			},
			"bone9": {
				"translate": [
					{ "x": -0.09, "y": -2.95, "curve": 0.381, "c2": 0.59, "c3": 0.729 },
					{ "time": 0.0667, "curve": 0.25, "c3": 0.75 },
					{ "time": 0.3, "x": -0.38, "y": -13.14, "curve": 0.25, "c3": 0.75 },
					{ "time": 0.5333, "curve": 0.25, "c3": 0.75 },
					{ "time": 0.7667, "x": -0.38, "y": -13.14, "curve": 0.243, "c3": 0.658, "c4": 0.64 },
					{ "time": 0.9333, "x": -0.09, "y": -2.95, "curve": 0.381, "c2": 0.59, "c3": 0.729 },
					{ "time": 1, "curve": 0.25, "c3": 0.75 },
					{ "time": 1.2333, "x": -0.38, "y": -13.14, "curve": 0.25, "c3": 0.75 },
					{ "time": 1.4667, "curve": 0.25, "c3": 0.75 },
					{ "time": 1.7, "x": -0.38, "y": -13.14, "curve": 0.243, "c3": 0.658, "c4": 0.64 },
					{ "time": 1.8667, "x": -0.09, "y": -2.95, "curve": 0.381, "c2": 0.59, "c3": 0.729 },
					{ "time": 1.9333, "curve": 0.25, "c3": 0.75 },
					{ "time": 2.1667, "x": -0.38, "y": -13.14, "curve": 0.25, "c3": 0.75 },
					{ "time": 2.4, "curve": 0.25, "c3": 0.75 },
					{ "time": 2.6333, "x": -0.38, "y": -13.14, "curve": 0.243, "c3": 0.658, "c4": 0.64 },
					{ "time": 2.8, "x": -0.09, "y": -2.95 }
				]
			},
			"root_face2": {
				"scale": [
					{ "y": 0.864, "curve": 0.367, "c2": 0.46, "c3": 0.754 },
					{ "time": 0.1333, "curve": 0.25, "c3": 0.75 },
					{ "time": 0.3667, "y": 0.772, "curve": 0.255, "c3": 0.62, "c4": 0.47 },
					{ "time": 0.4667, "y": 0.864, "curve": 0.367, "c2": 0.46, "c3": 0.754 },
					{ "time": 0.6, "curve": 0.255, "c3": 0.62, "c4": 0.47 },
					{ "time": 0.7, "y": 0.083, "curve": 0.367, "c2": 0.46, "c3": 0.754 },
					{ "time": 0.8333, "y": 0.772, "curve": 0.255, "c3": 0.62, "c4": 0.47 },
					{ "time": 0.9333, "y": 0.864, "curve": 0.367, "c2": 0.46, "c3": 0.754 },
					{ "time": 1.0667, "curve": 0.25, "c3": 0.75 },
					{ "time": 1.3, "y": 0.772, "curve": 0.255, "c3": 0.62, "c4": 0.47 },
					{ "time": 1.4, "y": 0.864, "curve": 0.367, "c2": 0.46, "c3": 0.754 },
					{ "time": 1.5333, "curve": 0.25, "c3": 0.75 },
					{ "time": 1.7667, "y": 0.772, "curve": 0.255, "c3": 0.62, "c4": 0.47 },
					{ "time": 1.8667, "y": 0.864, "curve": 0.367, "c2": 0.46, "c3": 0.754 },
					{ "time": 2, "curve": 0.25, "c3": 0.75 },
					{ "time": 2.2333, "y": 0.772, "curve": 0.255, "c3": 0.62, "c4": 0.47 },
					{ "time": 2.3333, "y": 0.864, "curve": 0.367, "c2": 0.46, "c3": 0.754 },
					{ "time": 2.4667, "curve": 0.25, "c3": 0.75 },
					{ "time": 2.7, "y": 0.772, "curve": 0.255, "c3": 0.62, "c4": 0.47 },
					{ "time": 2.8, "y": 0.864 }
				]
			},
			"foot": {
				"translate": [
					{ "x": 1.28 }
				]
			},
			"foot5": {
				"translate": [
					{ "x": -8.5 }
				]
			},
			"bone4": {
				"rotate": [
					{ "angle": 6.45, "curve": 0.381, "c2": 0.59, "c3": 0.729 },
					{ "time": 0.0667, "angle": 5.79, "curve": 0.25, "c3": 0.75 },
					{ "time": 0.3, "angle": 8.7, "curve": 0.25, "c3": 0.75 },
					{ "time": 0.5333, "angle": 5.79, "curve": 0.25, "c3": 0.75 },
					{ "time": 0.7667, "angle": 8.7, "curve": 0.243, "c3": 0.658, "c4": 0.64 },
					{ "time": 0.9333, "angle": 6.45, "curve": 0.381, "c2": 0.59, "c3": 0.729 },
					{ "time": 1, "angle": 5.79, "curve": 0.25, "c3": 0.75 },
					{ "time": 1.2333, "angle": 8.7, "curve": 0.25, "c3": 0.75 },
					{ "time": 1.4667, "angle": 5.79, "curve": 0.25, "c3": 0.75 },
					{ "time": 1.7, "angle": 8.7, "curve": 0.243, "c3": 0.658, "c4": 0.64 },
					{ "time": 1.8667, "angle": 6.45, "curve": 0.381, "c2": 0.59, "c3": 0.729 },
					{ "time": 1.9333, "angle": 5.79, "curve": 0.25, "c3": 0.75 },
					{ "time": 2.1667, "angle": 8.7, "curve": 0.25, "c3": 0.75 },
					{ "time": 2.4, "angle": 5.79, "curve": 0.25, "c3": 0.75 },
					{ "time": 2.6333, "angle": 8.7, "curve": 0.243, "c3": 0.658, "c4": 0.64 },
					{ "time": 2.8, "angle": 6.45 }
				]
			},
			"bone5": {
				"rotate": [
					{ "angle": -2.38, "curve": 0.367, "c2": 0.63, "c3": 0.705 },
					{ "time": 0.0333, "angle": -2.08, "curve": 0.25, "c3": 0.75 },
					{ "time": 0.2667, "angle": -6, "curve": 0.25, "c3": 0.75 },
					{ "time": 0.5, "angle": -2.08, "curve": 0.25, "c3": 0.75 },
					{ "time": 0.7333, "angle": -6, "curve": 0.25, "c3": 0.75 },
					{ "time": 0.9667, "angle": -2.08, "curve": 0.25, "c3": 0.75 },
					{ "time": 1.2, "angle": -6, "curve": 0.25, "c3": 0.75 },
					{ "time": 1.4333, "angle": -2.08, "curve": 0.25, "c3": 0.75 },
					{ "time": 1.6667, "angle": -6, "curve": 0.25, "c3": 0.75 },
					{ "time": 1.9, "angle": -2.08, "curve": 0.25, "c3": 0.75 },
					{ "time": 2.1333, "angle": -6, "curve": 0.25, "c3": 0.75 },
					{ "time": 2.3667, "angle": -2.08, "curve": 0.25, "c3": 0.75 },
					{ "time": 2.6, "angle": -6, "curve": 0.244, "c3": 0.697, "c4": 0.78 },
					{ "time": 2.8, "angle": -2.38 }
				]
			},
			"bone6": {
				"rotate": [
					{ "angle": -1, "curve": 0.367, "c2": 0.63, "c3": 0.705 },
					{ "time": 0.0333, "angle": -0.82, "curve": 0.25, "c3": 0.75 },
					{ "time": 0.2667, "angle": -3.2, "curve": 0.25, "c3": 0.75 },
					{ "time": 0.5, "angle": -0.82, "curve": 0.25, "c3": 0.75 },
					{ "time": 0.7333, "angle": -3.2, "curve": 0.25, "c3": 0.75 },
					{ "time": 0.9667, "angle": -0.82, "curve": 0.25, "c3": 0.75 },
					{ "time": 1.2, "angle": -3.2, "curve": 0.25, "c3": 0.75 },
					{ "time": 1.4333, "angle": -0.82, "curve": 0.25, "c3": 0.75 },
					{ "time": 1.6667, "angle": -3.2, "curve": 0.25, "c3": 0.75 },
					{ "time": 1.9, "angle": -0.82, "curve": 0.25, "c3": 0.75 },
					{ "time": 2.1333, "angle": -3.2, "curve": 0.25, "c3": 0.75 },
					{ "time": 2.3667, "angle": -0.82, "curve": 0.25, "c3": 0.75 },
					{ "time": 2.6, "angle": -3.2, "curve": 0.244, "c3": 0.697, "c4": 0.78 },
					{ "time": 2.8, "angle": -1 }
				]
			},
			"hair_4": {
				"rotate": [
					{ "angle": -10.32, "curve": 0.38, "c2": 0.53, "c3": 0.745 },
					{ "time": 0.1, "angle": -1.26, "curve": 0.25, "c3": 0.75 },
					{ "time": 0.3333, "angle": -23.61, "curve": 0.25, "c3": 0.75 },
					{ "time": 0.5667, "angle": -1.26, "curve": 0.25, "c3": 0.75 },
					{ "time": 0.8, "angle": -23.61, "curve": 0.25, "c3": 0.75 },
					{ "time": 1.0333, "angle": -1.26, "curve": 0.25, "c3": 0.75 },
					{ "time": 1.2667, "angle": -23.61, "curve": 0.25, "c3": 0.75 },
					{ "time": 1.5, "angle": -1.26, "curve": 0.25, "c3": 0.75 },
					{ "time": 1.7333, "angle": -23.61, "curve": 0.25, "c3": 0.75 },
					{ "time": 1.9667, "angle": -1.26, "curve": 0.25, "c3": 0.75 },
					{ "time": 2.2, "angle": -23.61, "curve": 0.25, "c3": 0.75 },
					{ "time": 2.4333, "angle": -1.26, "curve": 0.25, "c3": 0.75 },
					{ "time": 2.6667, "angle": -23.61, "curve": 0.246, "c3": 0.633, "c4": 0.54 },
					{ "time": 2.8, "angle": -10.32 }
				]
			},
			"bone7": {
				"rotate": [
					{ "angle": -2.18, "curve": 0.367, "c2": 0.46, "c3": 0.754 },
					{ "time": 0.1333, "angle": 0.62, "curve": 0.25, "c3": 0.75 },
					{ "time": 0.3667, "angle": -4.09, "curve": 0.25, "c3": 0.75 },
					{ "time": 0.6, "angle": 0.62, "curve": 0.25, "c3": 0.75 },
					{ "time": 0.8333, "angle": -4.09, "curve": 0.25, "c3": 0.75 },
					{ "time": 1.0667, "angle": 0.62, "curve": 0.25, "c3": 0.75 },
					{ "time": 1.3, "angle": -4.09, "curve": 0.25, "c3": 0.75 },
					{ "time": 1.5333, "angle": 0.62, "curve": 0.25, "c3": 0.75 },
					{ "time": 1.7667, "angle": -4.09, "curve": 0.25, "c3": 0.75 },
					{ "time": 2, "angle": 0.62, "curve": 0.25, "c3": 0.75 },
					{ "time": 2.2333, "angle": -4.09, "curve": 0.25, "c3": 0.75 },
					{ "time": 2.4667, "angle": 0.62, "curve": 0.25, "c3": 0.75 },
					{ "time": 2.7, "angle": -4.09, "curve": 0.255, "c3": 0.62, "c4": 0.47 },
					{ "time": 2.8, "angle": -2.18 }
				]
			},
			"hair_2": {
				"rotate": [
					{ "angle": -9.18, "curve": 0.25, "c3": 0.75 },
					{ "time": 0.2333, "angle": 6.18, "curve": 0.25, "c3": 0.75 },
					{ "time": 0.4667, "angle": -9.18, "curve": 0.25, "c3": 0.75 },
					{ "time": 0.7, "angle": 6.18, "curve": 0.25, "c3": 0.75 },
					{ "time": 0.9333, "angle": -9.18, "curve": 0.25, "c3": 0.75 },
					{ "time": 1.1667, "angle": 6.18, "curve": 0.25, "c3": 0.75 },
					{ "time": 1.4, "angle": -9.18, "curve": 0.25, "c3": 0.75 },
					{ "time": 1.6333, "angle": 6.18, "curve": 0.25, "c3": 0.75 },
					{ "time": 1.8667, "angle": -9.18, "curve": 0.25, "c3": 0.75 },
					{ "time": 2.1, "angle": 6.18, "curve": 0.25, "c3": 0.75 },
					{ "time": 2.3333, "angle": -9.18, "curve": 0.25, "c3": 0.75 },
					{ "time": 2.5667, "angle": 6.18, "curve": 0.25, "c3": 0.75 },
					{ "time": 2.8, "angle": -9.18 }
				]
			},
			"hair_5": {
				"rotate": [
					{ "angle": 4.42, "curve": 0.25, "c3": 0.75 },
					{ "time": 0.2333, "angle": -3.36, "curve": 0.25, "c3": 0.75 },
					{ "time": 0.4667, "angle": 4.42, "curve": 0.25, "c3": 0.75 },
					{ "time": 0.7, "angle": -3.36, "curve": 0.25, "c3": 0.75 },
					{ "time": 0.9333, "angle": 4.42, "curve": 0.25, "c3": 0.75 },
					{ "time": 1.1667, "angle": -3.36, "curve": 0.25, "c3": 0.75 },
					{ "time": 1.4, "angle": 4.42, "curve": 0.25, "c3": 0.75 },
					{ "time": 1.6333, "angle": -3.36, "curve": 0.25, "c3": 0.75 },
					{ "time": 1.8667, "angle": 4.42, "curve": 0.25, "c3": 0.75 },
					{ "time": 2.1, "angle": -3.36, "curve": 0.25, "c3": 0.75 },
					{ "time": 2.3333, "angle": 4.42, "curve": 0.25, "c3": 0.75 },
					{ "time": 2.5667, "angle": -3.36, "curve": 0.25, "c3": 0.75 },
					{ "time": 2.8, "angle": 4.42 }
				]
			},
			"hair_1": {
				"rotate": [
					{ "angle": -5.16, "curve": 0.25, "c3": 0.75 },
					{ "time": 0.2333, "angle": 4.23, "curve": 0.25, "c3": 0.75 },
					{ "time": 0.4667, "angle": -5.16, "curve": 0.25, "c3": 0.75 },
					{ "time": 0.7, "angle": 4.23, "curve": 0.25, "c3": 0.75 },
					{ "time": 0.9333, "angle": -5.16, "curve": 0.25, "c3": 0.75 },
					{ "time": 1.1667, "angle": 4.23, "curve": 0.25, "c3": 0.75 },
					{ "time": 1.4, "angle": -5.16, "curve": 0.25, "c3": 0.75 },
					{ "time": 1.6333, "angle": 4.23, "curve": 0.25, "c3": 0.75 },
					{ "time": 1.8667, "angle": -5.16, "curve": 0.25, "c3": 0.75 },
					{ "time": 2.1, "angle": 4.23, "curve": 0.25, "c3": 0.75 },
					{ "time": 2.3333, "angle": -5.16, "curve": 0.25, "c3": 0.75 },
					{ "time": 2.5667, "angle": 4.23, "curve": 0.25, "c3": 0.75 },
					{ "time": 2.8, "angle": -5.16 }
				]
			},
			"hair_3": {
				"rotate": [
					{ "angle": 2.89, "curve": 0.303, "c2": 0.22, "c3": 0.756 },
					{ "time": 0.2, "angle": -8.71, "curve": 0.25, "c3": 0.75 },
					{ "time": 0.4333, "angle": 3.86, "curve": 0.25, "c3": 0.75 },
					{ "time": 0.6667, "angle": -8.71, "curve": 0.25, "c3": 0.75 },
					{ "time": 0.9, "angle": 3.86, "curve": 0.25, "c3": 0.75 },
					{ "time": 1.1333, "angle": -8.71, "curve": 0.25, "c3": 0.75 },
					{ "time": 1.3667, "angle": 3.86, "curve": 0.25, "c3": 0.75 },
					{ "time": 1.6, "angle": -8.71, "curve": 0.25, "c3": 0.75 },
					{ "time": 1.8333, "angle": 3.86, "curve": 0.25, "c3": 0.75 },
					{ "time": 2.0667, "angle": -8.71, "curve": 0.25, "c3": 0.75 },
					{ "time": 2.3, "angle": 3.86, "curve": 0.25, "c3": 0.75 },
					{ "time": 2.5333, "angle": -8.71, "curve": 0.25, "c3": 0.75 },
					{ "time": 2.7667, "angle": 3.86, "curve": 0.295, "c3": 0.633, "c4": 0.37 },
					{ "time": 2.8, "angle": 2.89 }
				]
			},
			"bone8": {
				"rotate": [
					{ "angle": -10.85, "curve": 0.38, "c2": 0.53, "c3": 0.745 },
					{ "time": 0.1, "angle": -18.82, "curve": 0.25, "c3": 0.75 },
					{ "time": 0.3333, "angle": 0.82, "curve": 0.25, "c3": 0.75 },
					{ "time": 0.5667, "angle": -18.82, "curve": 0.25, "c3": 0.75 },
					{ "time": 0.8, "angle": 0.82, "curve": 0.25, "c3": 0.75 },
					{ "time": 1.0333, "angle": -18.82, "curve": 0.25, "c3": 0.75 },
					{ "time": 1.2667, "angle": 0.82, "curve": 0.25, "c3": 0.75 },
					{ "time": 1.5, "angle": -18.82, "curve": 0.25, "c3": 0.75 },
					{ "time": 1.7333, "angle": 0.82, "curve": 0.25, "c3": 0.75 },
					{ "time": 1.9667, "angle": -18.82, "curve": 0.25, "c3": 0.75 },
					{ "time": 2.2, "angle": 0.82, "curve": 0.25, "c3": 0.75 },
					{ "time": 2.4333, "angle": -18.82, "curve": 0.25, "c3": 0.75 },
					{ "time": 2.6667, "angle": 0.82, "curve": 0.246, "c3": 0.633, "c4": 0.54 },
					{ "time": 2.8, "angle": -10.85 }
				]
			},
			"root_face3": {
				"translate": [
					{ "time": 0.6667, "curve": 0.25, "c3": 0.75 },
					{ "time": 0.7333, "x": -34.13, "curve": "stepped" },
					{ "time": 2.1, "x": -34.13, "curve": 0.25, "c3": 0.75 },
					{ "time": 2.3333 }
				]
			},
			"eye_1_R": {
				"scale": [
					{ "time": 0.6667, "curve": 0.25, "c3": 0.75 },
					{ "time": 0.8, "x": 1.238, "y": 1.238, "curve": "stepped" },
					{ "time": 2.1, "x": 1.238, "y": 1.238, "curve": 0.25, "c3": 0.75 },
					{ "time": 2.3333 }
				]
			},
			"eyebrow_R": {
				"translate": [
					{ "time": 0.6333, "curve": 0.25, "c3": 0.75 },
					{ "time": 0.7, "y": -18.3, "curve": 0.25, "c3": 0.75 },
					{ "time": 0.9, "y": 32.81, "curve": "stepped" },
					{ "time": 2.1, "y": 32.81, "curve": 0.25, "c3": 0.75 },
					{ "time": 2.3333 }
				]
			},
			"eyebrow_L": {
				"translate": [
					{ "time": 0.6333, "curve": 0.25, "c3": 0.75 },
					{ "time": 0.7, "y": -18.3, "curve": 0.25, "c3": 0.75 },
					{ "time": 0.9, "x": -8.83, "y": -9.47, "curve": "stepped" },
					{ "time": 2.1, "x": -8.83, "y": -9.47 },
					{ "time": 2.3333 }
				]
			},
			"eye_1_L": {
				"scale": [
					{ "time": 0.6667, "curve": 0.25, "c3": 0.75 },
					{ "time": 0.8, "y": 0.735, "curve": "stepped" },
					{ "time": 2.1, "y": 0.735, "curve": 0.25, "c3": 0.75 },
					{ "time": 2.3333 }
				]
			}
		}
	},
	"idle_inhome2": {
		"bones": {
			"bone3": {
				"translate": [
					{ "curve": 0.25, "c3": 0.75 },
					{ "time": 0.2333, "y": -13.06, "curve": 0.25, "c3": 0.75 },
					{ "time": 0.4667, "curve": 0.25, "c3": 0.75 },
					{ "time": 0.7, "y": -13.06, "curve": 0.25, "c3": 0.75 },
					{ "time": 0.9333, "curve": 0.25, "c3": 0.75 },
					{ "time": 1.1667, "y": -13.06, "curve": 0.25, "c3": 0.75 },
					{ "time": 1.4, "curve": 0.25, "c3": 0.75 },
					{ "time": 1.6333, "y": -13.06, "curve": 0.25, "c3": 0.75 },
					{ "time": 1.8667, "curve": 0.25, "c3": 0.75 },
					{ "time": 2.1, "y": -13.06, "curve": 0.25, "c3": 0.75 },
					{ "time": 2.3333, "curve": 0.25, "c3": 0.75 },
					{ "time": 2.5667, "y": -13.06, "curve": 0.25, "c3": 0.75 },
					{ "time": 2.8 }
				]
			},
			"bone2": {
				"translate": [
					{ "x": -9.26, "curve": 0.375, "c2": 0.5, "c3": 0.75 },
					{ "time": 0.2333, "x": -17.59, "curve": 0.25, "c3": 0.75 },
					{ "time": 0.7, "x": -0.93, "curve": 0.25, "c3": 0.625, "c4": 0.5 },
					{ "time": 0.9333, "x": -9.26, "curve": 0.375, "c2": 0.5, "c3": 0.75 },
					{ "time": 1.1667, "x": -17.59, "curve": 0.25, "c3": 0.75 },
					{ "time": 1.6333, "x": -0.93, "curve": 0.25, "c3": 0.625, "c4": 0.5 },
					{ "time": 1.8667, "x": -9.26, "curve": 0.375, "c2": 0.5, "c3": 0.75 },
					{ "time": 2.1, "x": -17.59, "curve": 0.25, "c3": 0.75 },
					{ "time": 2.5667, "x": -0.93, "curve": 0.25, "c3": 0.625, "c4": 0.5 },
					{ "time": 2.8, "x": -9.26 }
				]
			},
			"bone10": {
				"translate": [
					{ "x": 0.91, "y": -5.03, "curve": 0.342, "c2": 0.36, "c3": 0.757 },
					{ "time": 0.3333, "x": -2.06, "y": 9.04, "curve": 0.25, "c3": 0.75 },
					{ "time": 0.8, "x": 1.77, "y": -9.11, "curve": 0.271, "c3": 0.619, "c4": 0.41 },
					{ "time": 0.9333, "x": 0.91, "y": -5.03, "curve": 0.342, "c2": 0.36, "c3": 0.757 },
					{ "time": 1.2667, "x": -2.06, "y": 9.04, "curve": 0.25, "c3": 0.75 },
					{ "time": 1.7333, "x": 1.77, "y": -9.11, "curve": 0.271, "c3": 0.619, "c4": 0.41 },
					{ "time": 1.8667, "x": 0.91, "y": -5.03, "curve": 0.342, "c2": 0.36, "c3": 0.757 },
					{ "time": 2.2, "x": -2.06, "y": 9.04, "curve": 0.25, "c3": 0.75 },
					{ "time": 2.6667, "x": 1.77, "y": -9.11, "curve": 0.271, "c3": 0.619, "c4": 0.41 },
					{ "time": 2.8, "x": 0.91, "y": -5.03 }
				]
			},
			"bone9": {
				"translate": [
					{ "x": -0.09, "y": -2.95, "curve": 0.381, "c2": 0.59, "c3": 0.729 },
					{ "time": 0.0667, "curve": 0.25, "c3": 0.75 },
					{ "time": 0.3, "x": -0.38, "y": -13.14, "curve": 0.25, "c3": 0.75 },
					{ "time": 0.5333, "curve": 0.25, "c3": 0.75 },
					{ "time": 0.7667, "x": -0.38, "y": -13.14, "curve": 0.243, "c3": 0.658, "c4": 0.64 },
					{ "time": 0.9333, "x": -0.09, "y": -2.95, "curve": 0.381, "c2": 0.59, "c3": 0.729 },
					{ "time": 1, "curve": 0.25, "c3": 0.75 },
					{ "time": 1.2333, "x": -0.38, "y": -13.14, "curve": 0.25, "c3": 0.75 },
					{ "time": 1.4667, "curve": 0.25, "c3": 0.75 },
					{ "time": 1.7, "x": -0.38, "y": -13.14, "curve": 0.243, "c3": 0.658, "c4": 0.64 },
					{ "time": 1.8667, "x": -0.09, "y": -2.95, "curve": 0.381, "c2": 0.59, "c3": 0.729 },
					{ "time": 1.9333, "curve": 0.25, "c3": 0.75 },
					{ "time": 2.1667, "x": -0.38, "y": -13.14, "curve": 0.25, "c3": 0.75 },
					{ "time": 2.4, "curve": 0.25, "c3": 0.75 },
					{ "time": 2.6333, "x": -0.38, "y": -13.14, "curve": 0.243, "c3": 0.658, "c4": 0.64 },
					{ "time": 2.8, "x": -0.09, "y": -2.95 }
				]
			},
			"foot": {
				"translate": [
					{ "x": 1.28 }
				]
			},
			"foot5": {
				"translate": [
					{ "x": -8.5 }
				]
			},
			"bone4": {
				"rotate": [
					{ "angle": 6.45, "curve": 0.381, "c2": 0.59, "c3": 0.729 },
					{ "time": 0.0667, "angle": 5.79, "curve": 0.25, "c3": 0.75 },
					{ "time": 0.3, "angle": 8.7, "curve": 0.25, "c3": 0.75 },
					{ "time": 0.5333, "angle": 5.79, "curve": 0.25, "c3": 0.75 },
					{ "time": 0.7667, "angle": 8.7, "curve": 0.243, "c3": 0.658, "c4": 0.64 },
					{ "time": 0.9333, "angle": 6.45, "curve": 0.381, "c2": 0.59, "c3": 0.729 },
					{ "time": 1, "angle": 5.79, "curve": 0.25, "c3": 0.75 },
					{ "time": 1.2333, "angle": 8.7, "curve": 0.25, "c3": 0.75 },
					{ "time": 1.4667, "angle": 5.79, "curve": 0.25, "c3": 0.75 },
					{ "time": 1.7, "angle": 8.7, "curve": 0.243, "c3": 0.658, "c4": 0.64 },
					{ "time": 1.8667, "angle": 6.45, "curve": 0.381, "c2": 0.59, "c3": 0.729 },
					{ "time": 1.9333, "angle": 5.79, "curve": 0.25, "c3": 0.75 },
					{ "time": 2.1667, "angle": 8.7, "curve": 0.25, "c3": 0.75 },
					{ "time": 2.4, "angle": 5.79, "curve": 0.25, "c3": 0.75 },
					{ "time": 2.6333, "angle": 8.7, "curve": 0.243, "c3": 0.658, "c4": 0.64 },
					{ "time": 2.8, "angle": 6.45 }
				]
			},
			"bone5": {
				"rotate": [
					{ "angle": -2.38, "curve": 0.367, "c2": 0.63, "c3": 0.705 },
					{ "time": 0.0333, "angle": -2.08, "curve": 0.25, "c3": 0.75 },
					{ "time": 0.2667, "angle": -6, "curve": 0.25, "c3": 0.75 },
					{ "time": 0.5, "angle": -2.08, "curve": 0.25, "c3": 0.75 },
					{ "time": 0.7333, "angle": -6, "curve": 0.25, "c3": 0.75 },
					{ "time": 0.9667, "angle": -2.08, "curve": 0.25, "c3": 0.75 },
					{ "time": 1.2, "angle": -6, "curve": 0.25, "c3": 0.75 },
					{ "time": 1.4333, "angle": -2.08, "curve": 0.25, "c3": 0.75 },
					{ "time": 1.6667, "angle": -6, "curve": 0.25, "c3": 0.75 },
					{ "time": 1.9, "angle": -2.08, "curve": 0.25, "c3": 0.75 },
					{ "time": 2.1333, "angle": -6, "curve": 0.25, "c3": 0.75 },
					{ "time": 2.3667, "angle": -2.08, "curve": 0.25, "c3": 0.75 },
					{ "time": 2.6, "angle": -6, "curve": 0.244, "c3": 0.697, "c4": 0.78 },
					{ "time": 2.8, "angle": -2.38 }
				]
			},
			"bone6": {
				"rotate": [
					{ "angle": -1, "curve": 0.367, "c2": 0.63, "c3": 0.705 },
					{ "time": 0.0333, "angle": -0.82, "curve": 0.25, "c3": 0.75 },
					{ "time": 0.2667, "angle": -3.2, "curve": 0.25, "c3": 0.75 },
					{ "time": 0.5, "angle": -0.82, "curve": 0.25, "c3": 0.75 },
					{ "time": 0.7333, "angle": -3.2, "curve": 0.25, "c3": 0.75 },
					{ "time": 0.9667, "angle": -0.82, "curve": 0.25, "c3": 0.75 },
					{ "time": 1.2, "angle": -3.2, "curve": 0.25, "c3": 0.75 },
					{ "time": 1.4333, "angle": -0.82, "curve": 0.25, "c3": 0.75 },
					{ "time": 1.6667, "angle": -3.2, "curve": 0.25, "c3": 0.75 },
					{ "time": 1.9, "angle": -0.82, "curve": 0.25, "c3": 0.75 },
					{ "time": 2.1333, "angle": -3.2, "curve": 0.25, "c3": 0.75 },
					{ "time": 2.3667, "angle": -0.82, "curve": 0.25, "c3": 0.75 },
					{ "time": 2.6, "angle": -3.2, "curve": 0.244, "c3": 0.697, "c4": 0.78 },
					{ "time": 2.8, "angle": -1 }
				]
			},
			"hair_4": {
				"rotate": [
					{ "angle": -10.32, "curve": 0.38, "c2": 0.53, "c3": 0.745 },
					{ "time": 0.1, "angle": -1.26, "curve": 0.25, "c3": 0.75 },
					{ "time": 0.3333, "angle": -23.61, "curve": 0.25, "c3": 0.75 },
					{ "time": 0.5667, "angle": -1.26, "curve": 0.25, "c3": 0.75 },
					{ "time": 0.8, "angle": -23.61, "curve": 0.25, "c3": 0.75 },
					{ "time": 1.0333, "angle": -1.26, "curve": 0.25, "c3": 0.75 },
					{ "time": 1.2667, "angle": -23.61, "curve": 0.25, "c3": 0.75 },
					{ "time": 1.5, "angle": -1.26, "curve": 0.25, "c3": 0.75 },
					{ "time": 1.7333, "angle": -23.61, "curve": 0.25, "c3": 0.75 },
					{ "time": 1.9667, "angle": -1.26, "curve": 0.25, "c3": 0.75 },
					{ "time": 2.2, "angle": -23.61, "curve": 0.25, "c3": 0.75 },
					{ "time": 2.4333, "angle": -1.26, "curve": 0.25, "c3": 0.75 },
					{ "time": 2.6667, "angle": -23.61, "curve": 0.246, "c3": 0.633, "c4": 0.54 },
					{ "time": 2.8, "angle": -10.32 }
				]
			},
			"bone7": {
				"rotate": [
					{ "angle": -2.18, "curve": 0.367, "c2": 0.46, "c3": 0.754 },
					{ "time": 0.1333, "angle": 0.62, "curve": 0.25, "c3": 0.75 },
					{ "time": 0.3667, "angle": -4.09, "curve": 0.25, "c3": 0.75 },
					{ "time": 0.6, "angle": 0.62, "curve": 0.25, "c3": 0.75 },
					{ "time": 0.8333, "angle": -4.09, "curve": 0.25, "c3": 0.75 },
					{ "time": 1.0667, "angle": 0.62, "curve": 0.25, "c3": 0.75 },
					{ "time": 1.3, "angle": -4.09, "curve": 0.25, "c3": 0.75 },
					{ "time": 1.5333, "angle": 0.62, "curve": 0.25, "c3": 0.75 },
					{ "time": 1.7667, "angle": -4.09, "curve": 0.25, "c3": 0.75 },
					{ "time": 2, "angle": 0.62, "curve": 0.25, "c3": 0.75 },
					{ "time": 2.2333, "angle": -4.09, "curve": 0.25, "c3": 0.75 },
					{ "time": 2.4667, "angle": 0.62, "curve": 0.25, "c3": 0.75 },
					{ "time": 2.7, "angle": -4.09, "curve": 0.255, "c3": 0.62, "c4": 0.47 },
					{ "time": 2.8, "angle": -2.18 }
				]
			},
			"hair_2": {
				"rotate": [
					{ "angle": -9.18, "curve": 0.25, "c3": 0.75 },
					{ "time": 0.2333, "angle": 6.18, "curve": 0.25, "c3": 0.75 },
					{ "time": 0.4667, "angle": -9.18, "curve": 0.25, "c3": 0.75 },
					{ "time": 0.7, "angle": 6.18, "curve": 0.25, "c3": 0.75 },
					{ "time": 0.9333, "angle": -9.18, "curve": 0.25, "c3": 0.75 },
					{ "time": 1.1667, "angle": 6.18, "curve": 0.25, "c3": 0.75 },
					{ "time": 1.4, "angle": -9.18, "curve": 0.25, "c3": 0.75 },
					{ "time": 1.6333, "angle": 6.18, "curve": 0.25, "c3": 0.75 },
					{ "time": 1.8667, "angle": -9.18, "curve": 0.25, "c3": 0.75 },
					{ "time": 2.1, "angle": 6.18, "curve": 0.25, "c3": 0.75 },
					{ "time": 2.3333, "angle": -9.18, "curve": 0.25, "c3": 0.75 },
					{ "time": 2.5667, "angle": 6.18, "curve": 0.25, "c3": 0.75 },
					{ "time": 2.8, "angle": -9.18 }
				]
			},
			"hair_5": {
				"rotate": [
					{ "angle": 4.42, "curve": 0.25, "c3": 0.75 },
					{ "time": 0.2333, "angle": -3.36, "curve": 0.25, "c3": 0.75 },
					{ "time": 0.4667, "angle": 4.42, "curve": 0.25, "c3": 0.75 },
					{ "time": 0.7, "angle": -3.36, "curve": 0.25, "c3": 0.75 },
					{ "time": 0.9333, "angle": 4.42, "curve": 0.25, "c3": 0.75 },
					{ "time": 1.1667, "angle": -3.36, "curve": 0.25, "c3": 0.75 },
					{ "time": 1.4, "angle": 4.42, "curve": 0.25, "c3": 0.75 },
					{ "time": 1.6333, "angle": -3.36, "curve": 0.25, "c3": 0.75 },
					{ "time": 1.8667, "angle": 4.42, "curve": 0.25, "c3": 0.75 },
					{ "time": 2.1, "angle": -3.36, "curve": 0.25, "c3": 0.75 },
					{ "time": 2.3333, "angle": 4.42, "curve": 0.25, "c3": 0.75 },
					{ "time": 2.5667, "angle": -3.36, "curve": 0.25, "c3": 0.75 },
					{ "time": 2.8, "angle": 4.42 }
				]
			},
			"hair_1": {
				"rotate": [
					{ "angle": -5.16, "curve": 0.25, "c3": 0.75 },
					{ "time": 0.2333, "angle": 4.23, "curve": 0.25, "c3": 0.75 },
					{ "time": 0.4667, "angle": -5.16, "curve": 0.25, "c3": 0.75 },
					{ "time": 0.7, "angle": 4.23, "curve": 0.25, "c3": 0.75 },
					{ "time": 0.9333, "angle": -5.16, "curve": 0.25, "c3": 0.75 },
					{ "time": 1.1667, "angle": 4.23, "curve": 0.25, "c3": 0.75 },
					{ "time": 1.4, "angle": -5.16, "curve": 0.25, "c3": 0.75 },
					{ "time": 1.6333, "angle": 4.23, "curve": 0.25, "c3": 0.75 },
					{ "time": 1.8667, "angle": -5.16, "curve": 0.25, "c3": 0.75 },
					{ "time": 2.1, "angle": 4.23, "curve": 0.25, "c3": 0.75 },
					{ "time": 2.3333, "angle": -5.16, "curve": 0.25, "c3": 0.75 },
					{ "time": 2.5667, "angle": 4.23, "curve": 0.25, "c3": 0.75 },
					{ "time": 2.8, "angle": -5.16 }
				]
			},
			"hair_3": {
				"rotate": [
					{ "angle": 2.89, "curve": 0.303, "c2": 0.22, "c3": 0.756 },
					{ "time": 0.2, "angle": -8.71, "curve": 0.25, "c3": 0.75 },
					{ "time": 0.4333, "angle": 3.86, "curve": 0.25, "c3": 0.75 },
					{ "time": 0.6667, "angle": -8.71, "curve": 0.25, "c3": 0.75 },
					{ "time": 0.9, "angle": 3.86, "curve": 0.25, "c3": 0.75 },
					{ "time": 1.1333, "angle": -8.71, "curve": 0.25, "c3": 0.75 },
					{ "time": 1.3667, "angle": 3.86, "curve": 0.25, "c3": 0.75 },
					{ "time": 1.6, "angle": -8.71, "curve": 0.25, "c3": 0.75 },
					{ "time": 1.8333, "angle": 3.86, "curve": 0.25, "c3": 0.75 },
					{ "time": 2.0667, "angle": -8.71, "curve": 0.25, "c3": 0.75 },
					{ "time": 2.3, "angle": 3.86, "curve": 0.25, "c3": 0.75 },
					{ "time": 2.5333, "angle": -8.71, "curve": 0.25, "c3": 0.75 },
					{ "time": 2.7667, "angle": 3.86, "curve": 0.295, "c3": 0.633, "c4": 0.37 },
					{ "time": 2.8, "angle": 2.89 }
				]
			},
			"bone8": {
				"rotate": [
					{ "angle": -10.85, "curve": 0.38, "c2": 0.53, "c3": 0.745 },
					{ "time": 0.1, "angle": -18.82, "curve": 0.25, "c3": 0.75 },
					{ "time": 0.3333, "angle": 0.82, "curve": 0.25, "c3": 0.75 },
					{ "time": 0.5667, "angle": -18.82, "curve": 0.25, "c3": 0.75 },
					{ "time": 0.8, "angle": 0.82, "curve": 0.25, "c3": 0.75 },
					{ "time": 1.0333, "angle": -18.82, "curve": 0.25, "c3": 0.75 },
					{ "time": 1.2667, "angle": 0.82, "curve": 0.25, "c3": 0.75 },
					{ "time": 1.5, "angle": -18.82, "curve": 0.25, "c3": 0.75 },
					{ "time": 1.7333, "angle": 0.82, "curve": 0.25, "c3": 0.75 },
					{ "time": 1.9667, "angle": -18.82, "curve": 0.25, "c3": 0.75 },
					{ "time": 2.2, "angle": 0.82, "curve": 0.25, "c3": 0.75 },
					{ "time": 2.4333, "angle": -18.82, "curve": 0.25, "c3": 0.75 },
					{ "time": 2.6667, "angle": 0.82, "curve": 0.246, "c3": 0.633, "c4": 0.54 },
					{ "time": 2.8, "angle": -10.85 }
				]
			},
			"eye_2_L": {
				"translate": [
					{ "curve": 0.25, "c3": 0.75 },
					{ "time": 0.1667, "x": -26.52, "y": -19.01, "curve": "stepped" },
					{ "time": 1.5, "x": -26.52, "y": -19.01, "curve": 0.25, "c3": 0.75 },
					{ "time": 1.6667 }
				],
				"scale": [
					{ "curve": 0.25, "c3": 0.75 },
					{ "time": 0.1667, "x": 0.953, "y": 0.953, "curve": "stepped" },
					{ "time": 1.5, "x": 0.953, "y": 0.953, "curve": 0.25, "c3": 0.75 },
					{ "time": 1.6667 }
				]
			},
			"eye_1_L": {
				"scale": [
					{ "curve": 0.245, "c3": 0.637, "c4": 0.56 },
					{ "time": 0.0667, "x": 1.279, "y": 0.174, "curve": 0.381, "c2": 0.55, "c3": 0.742 },
					{ "time": 0.1667, "x": 1.441, "y": 1.441, "curve": "stepped" },
					{ "time": 1.5, "x": 1.441, "y": 1.441, "curve": 0.245, "c3": 0.637, "c4": 0.56 },
					{ "time": 1.6, "x": 1.162, "y": 0.054, "curve": 0.381, "c2": 0.55, "c3": 0.742 },
					{ "time": 1.6667 }
				]
			},
			"eye_1_R": {
				"scale": [
					{ "curve": 0.245, "c3": 0.637, "c4": 0.56 },
					{ "time": 0.0667, "y": 0.084, "curve": 0.381, "c2": 0.55, "c3": 0.742 },
					{ "time": 0.1667, "y": 0.394, "curve": "stepped" },
					{ "time": 1.5, "y": 0.394, "curve": 0.245, "c3": 0.637, "c4": 0.56 },
					{ "time": 1.6, "y": 0.036, "curve": 0.381, "c2": 0.55, "c3": 0.742 },
					{ "time": 1.6667 }
				]
			},
			"eyebrow_R": {
				"translate": [
					{ "curve": 0.25, "c3": 0.75 },
					{ "time": 0.1667, "x": 17.67, "y": -27.76, "curve": "stepped" },
					{ "time": 1.5, "x": 17.67, "y": -27.76, "curve": 0.25, "c3": 0.75 },
					{ "time": 1.6667 }
				],
				"scale": [
					{ "curve": 0.25, "c3": 0.75 },
					{ "time": 0.1667, "x": 0.78, "y": 0.78, "curve": "stepped" },
					{ "time": 1.5, "x": 0.78, "y": 0.78, "curve": 0.25, "c3": 0.75 },
					{ "time": 1.6667 }
				]
			},
			"root_face2": {
				"translate": [
					{ "curve": 0.25, "c3": 0.75 },
					{ "time": 0.1667, "x": -22.98, "curve": "stepped" },
					{ "time": 1.5, "x": -22.98, "curve": 0.25, "c3": 0.75 },
					{ "time": 1.6667 }
				]
			},
			"root_eyebrow": {
				"translate": [
					{ "curve": 0.25, "c3": 0.75 },
					{ "time": 0.1667, "x": -30.5, "curve": "stepped" },
					{ "time": 1.5, "x": -30.5, "curve": 0.25, "c3": 0.75 },
					{ "time": 1.6667 }
				]
			},
			"eye_2_R": {
				"translate": [
					{ "curve": 0.25, "c3": 0.75 },
					{ "time": 0.1667, "x": -24.31, "y": -10.61, "curve": "stepped" },
					{ "time": 1.5, "x": -24.31, "y": -10.61, "curve": 0.25, "c3": 0.75 },
					{ "time": 1.6667 }
				],
				"scale": [
					{ "curve": 0.25, "c3": 0.75 },
					{ "time": 0.1667, "x": 0.602, "y": 0.602, "curve": "stepped" },
					{ "time": 1.5, "x": 0.602, "y": 0.602, "curve": 0.25, "c3": 0.75 },
					{ "time": 1.6667 }
				]
			},
			"eyebrow_L": {
				"translate": [
					{ "curve": 0.25, "c3": 0.75 },
					{ "time": 0.1667, "y": 30.06, "curve": 0.25, "c3": 0.75 },
					{ "time": 0.4, "y": 11.11, "curve": 0.25, "c3": 0.75 },
					{ "time": 0.5, "y": 41.3, "curve": 0.25, "c3": 0.75 },
					{ "time": 0.6, "y": 23.54, "curve": 0.25, "c3": 0.75 },
					{ "time": 0.7, "y": 41.3, "curve": 0.25, "c3": 0.75 },
					{ "time": 1, "y": 30.06, "curve": "stepped" },
					{ "time": 1.5, "y": 30.06, "curve": 0.25, "c3": 0.75 },
					{ "time": 1.6667 }
				],
				"scale": [
					{ "curve": 0.25, "c3": 0.75 },
					{ "time": 0.1667, "x": 1.195, "y": 1.195, "curve": "stepped" },
					{ "time": 1.5, "x": 1.195, "y": 1.195, "curve": 0.25, "c3": 0.75 },
					{ "time": 1.6667 }
				]
			},
			"mouth": {
				"rotate": [
					{},
					{ "time": 0.1667, "angle": 18.58, "curve": "stepped" },
					{ "time": 1.5, "angle": 18.58 },
					{ "time": 1.6667 }
				],
				"translate": [
					{},
					{ "time": 0.1667, "x": 14.08, "y": -29.69, "curve": "stepped" },
					{ "time": 1.5, "x": 14.08, "y": -29.69 },
					{ "time": 1.6667 }
				],
				"scale": [
					{},
					{ "time": 0.1667, "y": 1.349, "curve": "stepped" },
					{ "time": 1.5, "y": 1.349 },
					{ "time": 1.6667 }
				]
			}
		}
	},
	"run": {
		"bones": {
			"bone3": {
				"translate": [
					{ "y": 22.68, "curve": 0.25, "c3": 0.75 },
					{ "time": 0.1333, "y": 3.78, "curve": 0.25, "c3": 0.75 },
					{ "time": 0.2667, "y": 22.68, "curve": 0.25, "c3": 0.75 },
					{ "time": 0.4, "y": 3.78, "curve": 0.25, "c3": 0.75 },
					{ "time": 0.5333, "y": 22.68 }
				]
			},
			"foot3": {
				"translate": [
					{ "y": -2.08, "curve": 0.382, "c2": 0.57, "c3": 0.735 },
					{ "time": 0.0667, "y": -17.97, "curve": 0.25, "c3": 0.75 },
					{ "time": 0.2333, "y": 20.04, "curve": 0.25, "c3": 0.75 },
					{ "time": 0.4, "y": 38, "curve": 0.243, "c3": 0.649, "c4": 0.6 },
					{ "time": 0.5333, "y": -2.08 }
				],
				"scale": [
					{ "x": 1.092, "y": 1.092, "curve": 0.373, "c2": 0.62, "c3": 0.713 },
					{ "time": 0.0667, "x": 1.139, "y": 1.139, "curve": 0.25, "c3": 0.75 },
					{ "time": 0.2333, "x": 0.716, "y": 0.716, "curve": 0.243, "c3": 0.685, "c4": 0.73 },
					{ "time": 0.5333, "x": 1.092, "y": 1.092 }
				]
			},
			"foot6": {
				"translate": [
					{ "y": 22.38, "curve": 0.32, "c2": 0.29, "c3": 0.757 },
					{ "time": 0.1333, "y": 38, "curve": 0.243, "c3": 0.649, "c4": 0.6 },
					{ "time": 0.2667, "y": -2.08, "curve": 0.382, "c2": 0.57, "c3": 0.735 },
					{ "time": 0.3333, "y": -17.97, "curve": 0.25, "c3": 0.75 },
					{ "time": 0.5, "y": 20.04, "curve": 0.284, "c3": 0.625, "c4": 0.38 },
					{ "time": 0.5333, "y": 22.38 }
				],
				"scale": [
					{ "x": 0.731, "y": 0.731, "curve": 0.276, "c2": 0.14, "c3": 0.693, "c4": 0.76 },
					{ "time": 0.2667, "x": 1.092, "y": 1.092, "curve": 0.373, "c2": 0.62, "c3": 0.713 },
					{ "time": 0.3333, "x": 1.139, "y": 1.139, "curve": 0.25, "c3": 0.75 },
					{ "time": 0.5, "x": 0.716, "y": 0.716, "curve": 0.307, "c3": 0.642, "c4": 0.35 },
					{ "time": 0.5333, "x": 0.731, "y": 0.731 }
				]
			},
			"bone4": {
				"rotate": [
					{ "angle": 2.85, "curve": 0.333, "c2": 0.33, "c3": 0.758 },
					{ "time": 0.2, "angle": -4.01, "curve": 0.25, "c3": 0.75 },
					{ "time": 0.4667, "angle": 4.41, "curve": 0.276, "c3": 0.621, "c4": 0.4 },
					{ "time": 0.5333, "angle": 2.85 }
				]
			},
			"bone5": {
				"rotate": [
					{ "angle": 3.04, "curve": 0.364, "c2": 0.64, "c3": 0.701 },
					{ "time": 0.0333, "angle": 3.57, "curve": 0.25, "c3": 0.75 },
					{ "time": 0.3, "angle": -4.84, "curve": 0.244, "c3": 0.702, "c4": 0.8 },
					{ "time": 0.5333, "angle": 3.04 }
				]
			},
			"bone6": {
				"rotate": [
					{ "angle": -2.72, "curve": 0.375, "c2": 0.5, "c3": 0.75 },
					{ "time": 0.1333, "angle": 6.82, "curve": 0.25, "c3": 0.75 },
					{ "time": 0.4, "angle": -12.27, "curve": 0.25, "c3": 0.625, "c4": 0.5 },
					{ "time": 0.5333, "angle": -2.72 }
				]
			},
			"bone7": {
				"rotate": [
					{ "angle": -10.4, "curve": 0.298, "c2": 0.2, "c3": 0.756 },
					{ "time": 0.2333, "angle": 10.49, "curve": 0.25, "c3": 0.75 },
					{ "time": 0.5, "angle": -11.8, "curve": 0.299, "c3": 0.636, "c4": 0.36 },
					{ "time": 0.5333, "angle": -10.4 }
				]
			},
			"bone10": {
				"translate": [
					{ "x": -10.24, "y": 21.15, "curve": 0.25, "c3": 0.75 },
					{ "time": 0.2667, "x": -1.89, "y": 8.07, "curve": 0.25, "c3": 0.75 },
					{ "time": 0.5333, "x": -10.24, "y": 21.15 }
				]
			},
			"foot2": {
				"rotate": [
					{ "angle": 0.91, "curve": 0.382, "c2": 0.56, "c3": 0.74 },
					{ "time": 0.1 },
					{ "time": 0.3667, "angle": -18.14, "curve": 0.26, "c3": 0.618, "c4": 0.44 },
					{ "time": 0.4667, "angle": 14.18, "curve": 0.329, "c2": 0.32, "c3": 0.671, "c4": 0.68 },
					{ "time": 0.5333, "angle": 0.91 }
				]
			},
			"foot7": {
				"rotate": [
					{ "angle": -10.46, "curve": 0.382, "c2": 0.56, "c3": 0.74 },
					{ "time": 0.1, "angle": 14.11, "curve": 0.244, "c3": 0.641, "c4": 0.57 },
					{ "time": 0.2, "angle": -23.13, "curve": 0.382, "c2": 0.56, "c3": 0.74 },
					{ "time": 0.3667, "curve": 0.244, "c3": 0.641, "c4": 0.57 },
					{ "time": 0.5333, "angle": -10.46 }
				]
			},
			"bone9": {
				"translate": [
					{ "x": 0.5, "y": -3.65, "curve": 0.375, "c2": 0.5, "c3": 0.75 },
					{ "time": 0.0667, "x": 0.35, "y": 6.38, "curve": 0.25, "c3": 0.75 },
					{ "time": 0.2, "x": 0.65, "y": -13.68, "curve": 0.25, "c3": 0.75 },
					{ "time": 0.3333, "x": 0.35, "y": 6.38, "curve": 0.25, "c3": 0.75 },
					{ "time": 0.4667, "x": 0.65, "y": -13.68, "curve": 0.25, "c3": 0.625, "c4": 0.5 },
					{ "time": 0.5333, "x": 0.5, "y": -3.65 }
				]
			},
			"root_face2": {
				"translate": [
					{ "curve": 0.25, "c3": 0.75 },
					{ "time": 0.1333, "y": -10.04, "curve": 0.25, "c3": 0.75 },
					{ "time": 0.2667, "curve": 0.25, "c3": 0.75 },
					{ "time": 0.4, "y": -10.04, "curve": 0.25, "c3": 0.75 },
					{ "time": 0.5333 }
				]
			},
			"root_eyebrow": {
				"translate": [
					{ "y": -9.59, "curve": 0.375, "c2": 0.5, "c3": 0.75 },
					{ "time": 0.0667, "curve": 0.25, "c3": 0.75 },
					{ "time": 0.2, "y": -19.17, "curve": 0.25, "c3": 0.75 },
					{ "time": 0.3333, "curve": 0.25, "c3": 0.75 },
					{ "time": 0.4667, "y": -19.17, "curve": 0.25, "c3": 0.625, "c4": 0.5 },
					{ "time": 0.5333, "y": -9.59 }
				]
			},
			"root_face3": {
				"translate": [
					{ "x": 0.64, "y": -6.39, "curve": 0.25, "c3": 0.75 },
					{ "time": 0.1, "x": -9.48, "y": -6.39, "curve": "stepped" },
					{ "time": 0.3, "x": -9.48, "y": -6.39, "curve": 0.25, "c3": 0.75 },
					{ "time": 0.4, "x": 0.64, "y": -6.39 }
				]
			},
			"bone8": {
				"rotate": [
					{ "angle": 6.01, "curve": 0.25, "c3": 0.75 },
					{ "time": 0.1333, "angle": -40.44, "curve": 0.25, "c3": 0.75 },
					{ "time": 0.2667, "angle": 6.01, "curve": 0.25, "c3": 0.75 },
					{ "time": 0.4, "angle": -40.44, "curve": 0.25, "c3": 0.75 },
					{ "time": 0.5333, "angle": 6.01 }
				]
			},
			"hair_5": {
				"rotate": [
					{ "angle": -2.84, "curve": 0.382, "c2": 0.56, "c3": 0.74 },
					{ "time": 0.1, "angle": -9.61 },
					{ "time": 0.3667, "angle": 10.54, "curve": 0.244, "c3": 0.641, "c4": 0.57 },
					{ "time": 0.5333, "angle": -2.84 }
				]
			},
			"hair_2": {
				"rotate": [
					{ "angle": -2.84, "curve": 0.382, "c2": 0.56, "c3": 0.74 },
					{ "time": 0.1, "angle": -9.61 },
					{ "time": 0.3667, "angle": 10.54, "curve": 0.244, "c3": 0.641, "c4": 0.57 },
					{ "time": 0.5333, "angle": -2.84 }
				]
			},
			"hair_1": {
				"rotate": [
					{ "angle": -2.84, "curve": 0.382, "c2": 0.56, "c3": 0.74 },
					{ "time": 0.1, "angle": -9.61, "curve": 0.25, "c3": 0.75 },
					{ "time": 0.3667, "angle": 10.54, "curve": 0.244, "c3": 0.641, "c4": 0.57 },
					{ "time": 0.5333, "angle": -2.84 }
				]
			},
			"hair_3": {
				"rotate": [
					{ "angle": -24.18, "curve": 0.25, "c3": 0.75 },
					{ "time": 0.2667, "angle": 20.3, "curve": 0.25, "c3": 0.75 },
					{ "time": 0.5333, "angle": -24.18 }
				]
			},
			"hair_4": {
				"rotate": [
					{ "angle": -15.32, "curve": 0.375, "c2": 0.5, "c3": 0.75 },
					{ "time": 0.1333, "angle": -46.08, "curve": 0.25, "c3": 0.75 },
					{ "time": 0.4, "angle": 15.44, "curve": 0.25, "c3": 0.625, "c4": 0.5 },
					{ "time": 0.5333, "angle": -15.32 }
				]
			}
		},
		"deform": {
			"default": {
				"body_s": {
					"body_s": [
						{
							"time": 0.1,
							"vertices": [ 0.7722, -1.4203, 0.60692, -1.4984, 0.55527, -1.5183, 0.7722, -1.4203, 0.60692, -1.4984, 0.55527, -1.5183, 0.7722, -1.4203, 0.60692, -1.4984, 0.55527, -1.5183, 0.9369, -1.31749, 0.7722, -1.4203, 0.60692, -1.4984, 0.55527, -1.5183, 0.9369, -1.31749, 0.7722, -1.4203, 0.60692, -1.4984, 0.55527, -1.5183, 0.9369, -1.31749, 0.7722, -1.4203, 0.60692, -1.4984, 0.55527, -1.5183, 0.9369, -1.31749, 0.7722, -1.4203, 0.60692, -1.4984, 0.55527, -1.5183, 0.9369, -1.31749, 0.7722, -1.4203, 0.60692, -1.4984, 0.55527, -1.5183, 0.9369, -1.31749, 0.7722, -1.4203, 0.60692, -1.4984, 0.9369, -1.31749, 0.7722, -1.4203, 0.9369, -1.31749, 0.7722, -1.4203, 0.9369, -1.31749, 0.7722, -1.4203, 0.60692, -1.4984, 0.9369, -1.31749, 0.7722, -1.4203, 0.60692, -1.4984, 0.55527, -1.5183, 0.9369, -1.31749, 0.7722, -1.4203, 0.60692, -1.4984, 0.55527, -1.5183, 0.9369, -1.31749, 0.7722, -1.4203, 0.60692, -1.4984, 0.55527, -1.5183, 0.9369, -1.31749, 0.7722, -1.4203, 0.60692, -1.4984, 0.55527, -1.5183, 0.9369, -1.31749, 0.7722, -1.4203, 0.60692, -1.4984, 0.55527, -1.5183, 0.7722, -1.4203, 0.60692, -1.4984, 0.55527, -1.5183, 0.7722, -1.4203, 0.60692, -1.4984, 0.55527, -1.5183, 0.7722, -1.4203, 0.60692, -1.4984, 0.55527, -1.5183, 0.60692, -1.4984, 0.55527, -1.5183, 0.9369, -1.31749, 0.9369, -1.31749, 0.7722, -1.4203, 0.60692, -1.4984, 0.9369, -1.31749, 0.7722, -1.4203, 0.60692, -1.4984, 0.55527, -1.5183, 0.7722, -1.4203, 0.60692, -1.4984, 0.55527, -1.5183, 0.7722, -1.4203, 0.60692, -1.4984, 0.55527, -1.5183 ]
						}
					]
				}
			}
		}
	},
	"win": {
		"slots": {
			"mouth": {
				"attachment": [
					{ "time": 0.6333, "name": "mouth_ag" },
					{ "time": 1.8333, "name": "mouth" }
				]
			}
		},
		"bones": {
			"bone3": {
				"translate": [
					{ "curve": 0.25, "c3": 0.556 },
					{ "time": 0.2333, "y": -37.95, "curve": 0.25, "c3": 0.506 },
					{ "time": 0.5, "y": 168.56, "curve": 0.33, "c3": 0.835, "c4": 0.62 },
					{ "time": 0.7, "y": -36.53, "curve": 0.225, "c2": 0.41, "c3": 0.75 },
					{ "time": 1.5, "y": -46.62, "curve": 0.25, "c3": 0.75 },
					{ "time": 1.6667, "y": -0.18, "curve": 0.25, "c3": 0.75 },
					{ "time": 1.8667, "y": -23.15, "curve": 0.25, "c3": 0.75 },
					{ "time": 2.1, "y": -0.18, "curve": 0.25, "c3": 0.75 },
					{ "time": 2.3667, "y": -17.82, "curve": 0.25, "c3": 0.75 },
					{ "time": 2.6667 }
				]
			},
			"bone2": {
				"translate": [
					{ "x": -9.26, "curve": "stepped" },
					{ "time": 1.5, "x": -9.26, "curve": 0.25, "c3": 0.233 },
					{ "time": 1.8667, "x": 79.3, "curve": 0.25, "c3": 0.496 },
					{ "time": 2.3667, "x": -31.84, "curve": 0.25, "c3": 0.75 },
					{ "time": 2.6667, "x": -9.26 }
				]
			},
			"bone10": {
				"translate": [
					{ "x": 0.91, "y": -5.03, "curve": 0.25, "c3": 0.75 },
					{ "time": 0.1333, "x": 1.09, "y": 1.15, "curve": 0.25, "c3": 0.75 },
					{ "time": 0.3, "x": 2.56, "y": 11.12, "curve": 0.25, "c3": 0.75 },
					{ "time": 0.5, "x": 9.47, "y": -17.45, "curve": 0.25, "c3": 0.75 },
					{ "time": 0.7667, "x": 2.65, "y": 14.99, "curve": 0.25, "c3": 0.75 },
					{ "time": 0.9667, "x": 1.08, "y": -6.57, "curve": 0.25, "c3": 0.75 },
					{ "time": 1.2333, "x": 2.19, "y": 9.6, "curve": 0.25, "c3": 0.75 },
					{ "time": 1.4, "x": 0.91, "y": -8.9, "curve": 0.25, "c3": 0.75 },
					{ "time": 1.6, "x": 19.68, "y": 14.14, "curve": 0.25, "c3": 0.75 },
					{ "time": 1.9333, "x": 16.13, "y": -9.68, "curve": 0.25, "c3": 0.75 },
					{ "time": 2.3333, "x": 6.96, "y": 20.54, "curve": 0.25, "c3": 0.75 },
					{ "time": 2.6667, "x": 0.91, "y": -5.03 }
				]
			},
			"bone9": {
				"translate": [
					{ "x": -0.09, "y": -2.95 }
				]
			},
			"root_face2": {
				"scale": [
					{ "y": 0.864, "curve": "stepped" },
					{ "time": 0.1333, "y": 0.864, "curve": 0.25, "c3": 0.75 },
					{ "time": 0.2333, "y": 0.536, "curve": 0.25, "c3": 0.75 },
					{ "time": 0.3333, "y": 0.864, "curve": "stepped" },
					{ "time": 0.6667, "y": 0.864, "curve": 0.25, "c3": 0.75 },
					{ "time": 0.7667, "y": 0.069, "curve": 0.25, "c3": 0.75 },
					{ "time": 0.8667, "y": 0.864, "curve": 0.367, "c2": 0.46, "c3": 0.754 },
					{ "time": 1.1333, "curve": 0.25, "c3": 0.75 },
					{ "time": 1.5667, "y": 0.772, "curve": 0.255, "c3": 0.62, "c4": 0.47 },
					{ "time": 1.7667, "y": 0.864, "curve": 0.367, "c2": 0.46, "c3": 0.754 },
					{ "time": 2.0333, "curve": 0.25, "c3": 0.75 },
					{ "time": 2.4667, "y": 0.772, "curve": 0.255, "c3": 0.62, "c4": 0.47 },
					{ "time": 2.6667, "y": 0.864 }
				]
			},
			"foot": {
				"translate": [
					{ "x": 1.28, "curve": "stepped" },
					{ "time": 0.4, "x": 1.28 },
					{ "time": 0.6, "x": 58.06, "curve": 0.15, "c2": 0.34, "c3": 0.75 },
					{ "time": 1.1667, "x": 76.99, "curve": "stepped" },
					{ "time": 2.1, "x": 76.99, "curve": 0.25, "c3": 0.521 },
					{ "time": 2.4, "x": 1.28 }
				]
			},
			"foot5": {
				"translate": [
					{ "x": -8.5, "curve": "stepped" },
					{ "time": 0.4, "x": -8.5 },
					{ "time": 0.6, "x": -80.84, "curve": 0.15, "c2": 0.34, "c3": 0.75 },
					{ "time": 1.1667, "x": -93.68, "curve": "stepped" },
					{ "time": 1.5667, "x": -93.68, "curve": 0.25, "c3": 0.75 },
					{ "time": 1.8667, "x": -8.5 }
				]
			},
			"bone4": {
				"rotate": [
					{ "angle": 6.45, "curve": 0.381, "c2": 0.59, "c3": 0.729 },
					{ "time": 0.0667, "angle": 5.79, "curve": 0.25, "c3": 0.75 },
					{ "time": 0.3, "angle": 11.04, "curve": 0.25, "c3": 0.75 },
					{ "time": 0.5333, "angle": 1.36, "curve": 0.25, "c3": 0.75 },
					{ "time": 0.7667, "angle": 11.04, "curve": 0.25, "c3": 0.75 },
					{ "time": 1, "angle": 1.36, "curve": 0.25, "c3": 0.75 },
					{ "time": 1.2333, "angle": 11.04, "curve": 0.25, "c3": 0.75 },
					{ "time": 1.5, "angle": 6.45, "curve": 0.25, "c3": 0.75 },
					{ "time": 1.8667, "angle": -4.49, "curve": 0.25, "c3": 0.75 },
					{ "time": 2.3667, "angle": 14.51, "curve": 0.25, "c3": 0.75 },
					{ "time": 2.6667, "angle": 6.45 }
				],
				"translate": [
					{ "time": 0.7667, "curve": 0.25, "c3": 0.75 },
					{ "time": 0.8333, "y": 2.33, "curve": 0.25, "c3": 0.75 },
					{ "time": 0.9, "curve": 0.25, "c3": 0.75 },
					{ "time": 0.9667, "y": 2.33, "curve": 0.25, "c3": 0.75 },
					{ "time": 1.0333, "curve": 0.25, "c3": 0.75 },
					{ "time": 1.1, "y": 2.33, "curve": 0.25, "c3": 0.75 },
					{ "time": 1.1667, "curve": 0.25, "c3": 0.75 },
					{ "time": 1.2333, "y": 2.33, "curve": 0.25, "c3": 0.75 },
					{ "time": 1.3, "curve": 0.25, "c3": 0.75 },
					{ "time": 1.3667, "y": 2.33, "curve": 0.25, "c3": 0.75 },
					{ "time": 1.4333, "curve": 0.25, "c3": 0.75 },
					{ "time": 1.5, "y": 2.33, "curve": 0.25, "c3": 0.75 },
					{ "time": 1.5667 }
				]
			},
			"bone5": {
				"rotate": [
					{ "angle": -2.38, "curve": 0.367, "c2": 0.63, "c3": 0.705 },
					{ "time": 0.0333, "angle": -2.08, "curve": 0.25, "c3": 0.75 },
					{ "time": 0.2667, "angle": -3.06, "curve": 0.25, "c3": 0.75 },
					{ "time": 0.5, "angle": -5.55, "curve": 0.25, "c3": 0.75 },
					{ "time": 0.7333, "angle": -3.06, "curve": 0.25, "c3": 0.75 },
					{ "time": 0.9667, "angle": -5.55, "curve": 0.25, "c3": 0.75 },
					{ "time": 1.2, "angle": -3.06, "curve": 0.25, "c3": 0.75 },
					{ "time": 1.4667, "angle": -5.55, "curve": 0.25, "c3": 0.75 },
					{ "time": 1.6667, "angle": 4.39, "curve": 0.25, "c3": 0.75 },
					{ "time": 1.9667, "angle": -6.66, "curve": 0.25, "c3": 0.75 },
					{ "time": 2.4667, "angle": -1.21, "curve": 0.25, "c3": 0.75 },
					{ "time": 2.6667, "angle": -2.38 }
				]
			},
			"bone6": {
				"rotate": [
					{ "angle": -1, "curve": 0.367, "c2": 0.63, "c3": 0.705 },
					{ "time": 0.0333, "angle": -0.82, "curve": 0.25, "c3": 0.75 },
					{ "time": 0.2667, "angle": 3.7, "curve": 0.25, "c3": 0.75 },
					{ "time": 0.5, "angle": -6.07, "curve": 0.25, "c3": 0.75 },
					{ "time": 0.7333, "angle": 3.7, "curve": 0.25, "c3": 0.75 },
					{ "time": 0.9667, "angle": -6.07, "curve": 0.25, "c3": 0.75 },
					{ "time": 1.2, "angle": 3.7, "curve": 0.25, "c3": 0.75 },
					{ "time": 1.4333, "angle": -6.07, "curve": 0.25, "c3": 0.75 },
					{ "time": 1.6667, "angle": 5.77, "curve": 0.25, "c3": 0.75 },
					{ "time": 1.9667, "angle": -5.28, "curve": 0.25, "c3": 0.75 },
					{ "time": 2.4667, "angle": 3.52, "curve": 0.25, "c3": 0.75 },
					{ "time": 2.6667, "angle": -1 }
				]
			},
			"hair_4": {
				"rotate": [
					{ "angle": -10.32, "curve": 0.38, "c2": 0.53, "c3": 0.745 },
					{ "time": 0.1, "angle": -1.26, "curve": 0.25, "c3": 0.75 },
					{ "time": 0.3333, "angle": -23.61, "curve": 0.246, "c3": 0.633, "c4": 0.54 },
					{ "time": 0.4333, "angle": -10.32, "curve": 0.38, "c2": 0.53, "c3": 0.745 },
					{ "time": 0.5333, "angle": -1.26, "curve": 0.25, "c3": 0.75 },
					{ "time": 0.7667, "angle": -23.61, "curve": 0.246, "c3": 0.633, "c4": 0.54 },
					{ "time": 0.9, "angle": -10.32, "curve": 0.38, "c2": 0.53, "c3": 0.745 },
					{ "time": 1, "angle": -1.26, "curve": 0.25, "c3": 0.75 },
					{ "time": 1.2, "angle": -23.61, "curve": 0.246, "c3": 0.633, "c4": 0.54 },
					{ "time": 1.3333, "angle": -10.32, "curve": 0.38, "c2": 0.53, "c3": 0.745 },
					{ "time": 1.4333, "angle": -1.26, "curve": 0.25, "c3": 0.75 },
					{ "time": 1.6667, "angle": -23.61, "curve": 0.246, "c3": 0.633, "c4": 0.54 },
					{ "time": 1.7667, "angle": -10.32, "curve": 0.38, "c2": 0.53, "c3": 0.745 },
					{ "time": 1.8667, "angle": -1.26, "curve": 0.25, "c3": 0.75 },
					{ "time": 2.1, "angle": -23.61, "curve": 0.246, "c3": 0.633, "c4": 0.54 },
					{ "time": 2.2333, "angle": -10.32, "curve": 0.38, "c2": 0.53, "c3": 0.745 },
					{ "time": 2.4667, "angle": 9.29, "curve": 0.25, "c3": 0.75 },
					{ "time": 2.6667, "angle": -10.32 }
				]
			},
			"bone7": {
				"rotate": [
					{ "angle": -2.18, "curve": 0.367, "c2": 0.46, "c3": 0.754 },
					{ "time": 0.1333, "angle": 0.62, "curve": 0.25, "c3": 0.75 },
					{ "time": 0.3667, "angle": -12.9, "curve": 0.25, "c3": 0.75 },
					{ "time": 0.6, "angle": 6.29, "curve": 0.25, "c3": 0.75 },
					{ "time": 0.8333, "angle": -12.9, "curve": 0.25, "c3": 0.75 },
					{ "time": 1.0667, "angle": 6.29, "curve": 0.25, "c3": 0.75 },
					{ "time": 1.3, "angle": -12.9, "curve": 0.25, "c3": 0.75 },
					{ "time": 1.5, "angle": -2.18, "curve": 0.245, "c2": 0.35, "c3": 0.785 },
					{ "time": 1.7333, "angle": 10.68, "curve": 0.25, "c3": 0.75 },
					{ "time": 2.1333, "angle": -11.82, "curve": 0.25, "c3": 0.75 },
					{ "time": 2.6667, "angle": -2.18 }
				]
			},
			"hair_2": {
				"rotate": [
					{ "angle": -9.18, "curve": 0.25, "c3": 0.75 },
					{ "time": 0.2333, "angle": 6.18, "curve": 0.25, "c3": 0.75 },
					{ "time": 0.4333, "angle": -9.18, "curve": 0.25, "c3": 0.75 },
					{ "time": 0.6667, "angle": 6.18, "curve": 0.25, "c3": 0.75 },
					{ "time": 0.9, "angle": -9.18, "curve": 0.25, "c3": 0.75 },
					{ "time": 1.1, "angle": 6.18, "curve": 0.25, "c3": 0.75 },
					{ "time": 1.3333, "angle": -9.18, "curve": 0.25, "c3": 0.75 },
					{ "time": 1.5667, "angle": 6.18, "curve": 0.25, "c3": 0.75 },
					{ "time": 1.7667, "angle": -9.18, "curve": 0.25, "c3": 0.75 },
					{ "time": 2, "angle": 6.18, "curve": 0.25, "c3": 0.75 },
					{ "time": 2.2333, "angle": -9.18, "curve": 0.25, "c3": 0.75 },
					{ "time": 2.4333, "angle": -2.35, "curve": 0.25, "c3": 0.75 },
					{ "time": 2.6667, "angle": -9.18 }
				]
			},
			"hair_5": {
				"rotate": [
					{ "angle": 4.42, "curve": 0.25, "c3": 0.75 },
					{ "time": 0.2333, "angle": -3.36, "curve": 0.25, "c3": 0.75 },
					{ "time": 0.4333, "angle": 4.42, "curve": 0.25, "c3": 0.75 },
					{ "time": 0.6667, "angle": -3.36, "curve": 0.25, "c3": 0.75 },
					{ "time": 0.9, "angle": 4.42, "curve": 0.25, "c3": 0.75 },
					{ "time": 1.1, "angle": -3.36, "curve": 0.25, "c3": 0.75 },
					{ "time": 1.3333, "angle": 4.42, "curve": 0.25, "c3": 0.75 },
					{ "time": 1.5667, "angle": -3.36, "curve": 0.25, "c3": 0.75 },
					{ "time": 1.7667, "angle": 4.42, "curve": 0.25, "c3": 0.75 },
					{ "time": 2, "angle": -3.36, "curve": 0.25, "c3": 0.75 },
					{ "time": 2.2333, "angle": 4.42, "curve": 0.25, "c3": 0.75 },
					{ "time": 2.4333, "angle": -3.36, "curve": 0.25, "c3": 0.75 },
					{ "time": 2.6667, "angle": 4.42 }
				]
			},
			"hair_1": {
				"rotate": [
					{ "angle": -5.16, "curve": 0.25, "c3": 0.75 },
					{ "time": 0.2333, "angle": 4.23, "curve": 0.25, "c3": 0.75 },
					{ "time": 0.4333, "angle": -5.16, "curve": 0.25, "c3": 0.75 },
					{ "time": 0.6667, "angle": 4.23, "curve": 0.25, "c3": 0.75 },
					{ "time": 0.9, "angle": -5.16, "curve": 0.25, "c3": 0.75 },
					{ "time": 1.1, "angle": 4.23, "curve": 0.25, "c3": 0.75 },
					{ "time": 1.3333, "angle": -5.16, "curve": 0.25, "c3": 0.75 },
					{ "time": 1.5667, "angle": 4.23, "curve": 0.25, "c3": 0.75 },
					{ "time": 1.7667, "angle": -5.16, "curve": 0.25, "c3": 0.75 },
					{ "time": 2, "angle": 4.23, "curve": 0.25, "c3": 0.75 },
					{ "time": 2.2333, "angle": -5.16, "curve": 0.25, "c3": 0.75 },
					{ "time": 2.4333, "angle": 4.23, "curve": 0.25, "c3": 0.75 },
					{ "time": 2.6667, "angle": -5.16 }
				]
			},
			"hair_3": {
				"rotate": [
					{ "angle": 2.89, "curve": 0.303, "c2": 0.22, "c3": 0.756 },
					{ "time": 0.2, "angle": -8.71, "curve": 0.25, "c3": 0.75 },
					{ "time": 0.4, "angle": 3.86, "curve": 0.295, "c3": 0.633, "c4": 0.37 },
					{ "time": 0.4333, "angle": 2.89, "curve": 0.303, "c2": 0.22, "c3": 0.756 },
					{ "time": 0.6333, "angle": -8.71, "curve": 0.25, "c3": 0.75 },
					{ "time": 0.8667, "angle": 3.86, "curve": 0.295, "c3": 0.633, "c4": 0.37 },
					{ "time": 0.9, "angle": 2.89, "curve": 0.303, "c2": 0.22, "c3": 0.756 },
					{ "time": 1.0667, "angle": -8.71, "curve": 0.25, "c3": 0.75 },
					{ "time": 1.3, "angle": 3.86, "curve": 0.295, "c3": 0.633, "c4": 0.37 },
					{ "time": 1.3333, "angle": 2.89, "curve": 0.303, "c2": 0.22, "c3": 0.756 },
					{ "time": 1.5333, "angle": -8.71, "curve": 0.25, "c3": 0.75 },
					{ "time": 1.7333, "angle": 3.86, "curve": 0.295, "c3": 0.633, "c4": 0.37 },
					{ "time": 1.7667, "angle": 2.89, "curve": 0.303, "c2": 0.22, "c3": 0.756 },
					{ "time": 1.9667, "angle": -8.71, "curve": 0.25, "c3": 0.75 },
					{ "time": 2.2, "angle": 3.86, "curve": 0.295, "c3": 0.633, "c4": 0.37 },
					{ "time": 2.2333, "angle": 2.89, "curve": 0.303, "c2": 0.22, "c3": 0.756 },
					{ "time": 2.4667, "angle": -8.71, "curve": 0.25, "c3": 0.75 },
					{ "time": 2.6667, "angle": 2.89 }
				]
			},
			"bone8": {
				"rotate": [
					{ "angle": -10.85, "curve": 0.25, "c3": 0.75 },
					{ "time": 0.1333, "angle": -30.26, "curve": 0.25, "c3": 0.75 },
					{ "time": 0.3667, "angle": 15.55, "curve": 0.25, "c3": 0.75 },
					{ "time": 0.6667, "angle": -49.5, "curve": 0.25, "c3": 0.75 },
					{ "time": 0.8, "angle": -28.03, "curve": 0.25, "c3": 0.75 },
					{ "time": 0.9333, "angle": -37.67, "curve": 0.25, "c3": 0.75 },
					{ "time": 1.1, "angle": -28.25, "curve": 0.25, "c3": 0.75 },
					{ "time": 1.1667, "angle": -36.34, "curve": 0.25, "c3": 0.75 },
					{ "time": 1.2333, "angle": -28.25, "curve": 0.25, "c3": 0.75 },
					{ "time": 1.3, "angle": -36.34, "curve": 0.25, "c3": 0.75 },
					{ "time": 1.3667, "angle": -28.25, "curve": 0.25, "c3": 0.75 },
					{ "time": 1.4333, "angle": -36.34, "curve": 0.25, "c3": 0.75 },
					{ "time": 1.5, "angle": -28.25, "curve": 0.25, "c3": 0.75 },
					{ "time": 1.5667, "angle": -36.34, "curve": 0.25, "c3": 0.75 },
					{ "time": 1.6333, "angle": -28.25, "curve": 0.25, "c3": 0.75 },
					{ "time": 1.7, "angle": -16.12, "curve": 0.25, "c3": 0.75 },
					{ "time": 1.8333, "angle": -34.94, "curve": 0.25, "c3": 0.75 },
					{ "time": 2.0333, "angle": -14.1, "curve": 0.25, "c3": 0.75 },
					{ "time": 2.2333, "angle": -37.61, "curve": 0.25, "c3": 0.75 },
					{ "time": 2.5333, "angle": -3.4, "curve": 0.25, "c3": 0.75 },
					{ "time": 2.6667, "angle": -10.85 }
				]
			},
			"foot6": {
				"translate": [
					{ "time": 0.3333, "curve": 0.16, "c2": 0.39, "c3": 0.646 },
					{ "time": 0.4, "x": 45.29, "curve": 0.16, "c2": 0.4, "c3": 0.685 },
					{ "time": 0.6, "y": 155.48, "curve": 0.394, "c3": 0.884, "c4": 0.65 },
					{ "time": 0.6667, "curve": "stepped" },
					{ "time": 1.5667, "curve": 0.21, "c2": 0.39, "c3": 0.75 },
					{ "time": 1.7667, "y": 14.87, "curve": 0.25, "c3": 0.879, "c4": 0.59 },
					{ "time": 1.8667 }
				]
			},
			"foot3": {
				"translate": [
					{ "time": 0.3333, "curve": 0.16, "c2": 0.39, "c3": 0.646 },
					{ "time": 0.4, "x": -32.45, "curve": 0.16, "c2": 0.4, "c3": 0.685 },
					{ "time": 0.6, "y": 155.48, "curve": 0.394, "c3": 0.884, "c4": 0.65 },
					{ "time": 0.6667 }
				]
			},
			"foot8": {
				"rotate": [
					{ "time": 0.3333, "curve": 0.16, "c2": 0.39, "c3": 0.646 },
					{ "time": 0.4, "angle": 63.42, "curve": 0.25, "c3": 0.75 },
					{ "time": 0.6333, "curve": "stepped" },
					{ "time": 1.5667, "curve": 0.254, "c3": 0.621, "c4": 0.47 },
					{ "time": 1.7, "angle": 8.48, "curve": 0.369, "c2": 0.47, "c3": 0.753 },
					{ "time": 1.8333 }
				]
			},
			"foot4": {
				"rotate": [
					{ "time": 0.3333, "curve": 0.16, "c2": 0.39, "c3": 0.646 },
					{ "time": 0.4, "angle": -57.16, "curve": 0.25, "c3": 0.75 },
					{ "time": 0.6333 }
				]
			},
			"foot7": {
				"rotate": [
					{ "time": 0.6, "curve": 0.25, "c3": 0.75 },
					{ "time": 0.6667, "angle": -38.03, "curve": 0.25, "c3": 0.75 },
					{ "time": 0.7, "curve": "stepped" },
					{ "time": 1.7667 },
					{ "time": 1.8333, "angle": -8.32 },
					{ "time": 1.8667 }
				]
			},
			"foot2": {
				"rotate": [
					{ "time": 0.6, "curve": 0.25, "c3": 0.75 },
					{ "time": 0.6667, "angle": 35.58, "curve": 0.25, "c3": 0.75 },
					{ "time": 0.7 }
				]
			},
			"mouth": {
				"scale": [
					{ "curve": 0.25, "c3": 0.75 },
					{ "time": 0.2, "x": 1.145, "y": 0.71, "curve": 0.25, "c3": 0.75 },
					{ "time": 0.4667, "x": 0.885, "y": 1.09, "curve": 0.25, "c3": 0.75 },
					{ "time": 0.6333, "x": 0.885, "y": 0.196, "curve": 0.25, "c3": 0.75 },
					{ "time": 0.7333, "x": 0.885, "y": 1.97, "curve": 0.25, "c3": 0.75 },
					{ "time": 0.8, "x": 0.885, "y": 1.584, "curve": 0.25, "c3": 0.75 },
					{ "time": 0.8667, "x": 0.885, "y": 1.97, "curve": 0.25, "c3": 0.75 },
					{ "time": 0.9333, "x": 0.885, "y": 1.584, "curve": 0.25, "c3": 0.75 },
					{ "time": 1, "x": 0.885, "y": 1.97, "curve": 0.25, "c3": 0.75 },
					{ "time": 1.0667, "x": 0.885, "y": 1.584, "curve": 0.25, "c3": 0.75 },
					{ "time": 1.1333, "x": 0.885, "y": 1.97, "curve": 0.25, "c3": 0.75 },
					{ "time": 1.2, "x": 0.885, "y": 1.584, "curve": 0.25, "c3": 0.75 },
					{ "time": 1.2667, "x": 0.885, "y": 1.97, "curve": 0.25, "c3": 0.75 },
					{ "time": 1.3333, "x": 0.885, "y": 1.584, "curve": 0.25, "c3": 0.75 },
					{ "time": 1.4, "x": 0.885, "y": 1.97, "curve": 0.25, "c3": 0.75 },
					{ "time": 1.4667, "x": 0.885, "y": 1.584, "curve": 0.25, "c3": 0.75 },
					{ "time": 1.5333, "x": 0.885, "y": 1.97, "curve": 0.25, "c3": 0.75 },
					{ "time": 1.6, "x": 0.885, "y": 1.584, "curve": 0.25, "c3": 0.75 },
					{ "time": 1.6667, "x": 0.885, "y": 1.97 },
					{ "time": 1.8333, "x": 0.885, "y": 0.205 },
					{ "time": 2.2667 }
				]
			},
			"eyebrow_R": {
				"rotate": [
					{ "time": 0.7667, "curve": 0.18, "c2": 0.38, "c3": 0.75 },
					{ "time": 1.3333, "angle": -12.46, "curve": 0.25, "c3": 0.75 },
					{ "time": 2 }
				],
				"translate": [
					{ "time": 0.1667, "curve": 0.25, "c3": 0.75 },
					{ "time": 0.2667, "x": 4.92, "y": -6.48 },
					{ "time": 0.3667, "curve": "stepped" },
					{ "time": 0.6667, "curve": 0.25, "c3": 0.75 },
					{ "time": 0.7667, "x": 4.92, "y": -6.48 },
					{ "time": 0.8667, "curve": 0.18, "c2": 0.38, "c3": 0.75 },
					{ "time": 1.3333, "x": 5.62, "y": 16.17, "curve": 0.25, "c3": 0.75 },
					{ "time": 2 }
				]
			},
			"eyebrow_L": {
				"rotate": [
					{ "time": 0.7667, "curve": 0.18, "c2": 0.38, "c3": 0.75 },
					{ "time": 1.3333, "angle": 14.6, "curve": 0.25, "c3": 0.75 },
					{ "time": 2 }
				],
				"translate": [
					{ "time": 0.1667, "curve": 0.25, "c3": 0.75 },
					{ "time": 0.2667, "x": -5.62, "y": -6.48 },
					{ "time": 0.3667, "curve": "stepped" },
					{ "time": 0.6667, "curve": 0.25, "c3": 0.75 },
					{ "time": 0.7667, "x": -5.62, "y": -6.48 },
					{ "time": 0.8667, "curve": 0.18, "c2": 0.38, "c3": 0.75 },
					{ "time": 1.3333, "x": -14.06, "y": 16.17, "curve": 0.25, "c3": 0.75 },
					{ "time": 2 }
				]
			}
		}
	}
}
}