{
"skeleton": {
	"hash": "Ze+7lYJq/LimepB/GtbvjdQFO7A",
	"spine": "3.8.84",
	"x": -40.58,
	"y": -43.5,
	"width": 447,
	"height": 87,
	"images": "../images/",
	"audio": "D:/0_TQD/13.Foodland/anim/char"
},
"bones": [
	{ "name": "root" },
	{ "name": "arrow", "parent": "root", "length": 223.47, "x": 17.37, "color": "ff3f00ff" }
],
"slots": [
	{ "name": "arrow_s", "bone": "arrow", "attachment": "arrow_s" },
	{ "name": "arrow", "bone": "arrow", "attachment": "arrow" }
],
"skins": [
	{
		"name": "default",
		"attachments": {
			"arrow": {
				"arrow": { "x": 165.55, "rotation": 180, "width": 435, "height": 75 }
			},
			"arrow_s": {
				"arrow_s": { "x": 165.55, "rotation": 180, "width": 447, "height": 87 }
			}
		}
	}
],
"animations": {
	"bullet": {}
}
}