
FoodLandSurvival_bow_bullet.png
size: 449,164
format: RGBA8888
filter: Linear,Linear
repeat: none
arrow
  rotate: false
  xy: 2, 2
  size: 433, 73
  orig: 435, 75
  offset: 1, 1
  index: -1
arrow_s
  rotate: false
  xy: 2, 77
  size: 445, 85
  orig: 447, 87
  offset: 1, 1
  index: -1
